log2c=5 log2g=-7 rate=81.0811
log2c=-1 log2g=-7 rate=67.9537
log2c=5 log2g=-1 rate=67.1815
log2c=-1 log2g=-1 rate=71.8147
log2c=11 log2g=-7 rate=81.2741
log2c=11 log2g=-1 rate=66.4093
log2c=5 log2g=-13 rate=67.9537
log2c=-1 log2g=-13 rate=67.9537
log2c=11 log2g=-13 rate=81.0811
log2c=-3 log2g=-7 rate=67.9537
log2c=-3 log2g=-1 rate=69.305
log2c=-3 log2g=-13 rate=67.9537
log2c=5 log2g=1 rate=61.1969
log2c=-1 log2g=1 rate=65.0579
log2c=11 log2g=1 rate=61.0039
log2c=-3 log2g=1 rate=68.5328
log2c=9 log2g=-7 rate=81.4672
log2c=9 log2g=-1 rate=66.4093
log2c=9 log2g=-13 rate=76.6409
log2c=9 log2g=1 rate=61.0039
log2c=5 log2g=-11 rate=67.9537
log2c=-1 log2g=-11 rate=67.9537
log2c=11 log2g=-11 rate=81.4672
log2c=-3 log2g=-11 rate=67.9537
log2c=9 log2g=-11 rate=81.0811
log2c=3 log2g=-7 rate=76.6409
log2c=3 log2g=-1 rate=67.3745
log2c=3 log2g=-13 rate=67.9537
log2c=3 log2g=1 rate=61.0039
log2c=3 log2g=-11 rate=67.9537
log2c=5 log2g=-5 rate=81.4672
log2c=-1 log2g=-5 rate=67.9537
log2c=11 log2g=-5 rate=77.6062
log2c=-3 log2g=-5 rate=67.9537
log2c=9 log2g=-5 rate=79.9228
log2c=3 log2g=-5 rate=81.0811
log2c=15 log2g=-7 rate=79.9228
log2c=15 log2g=-1 rate=66.4093
log2c=15 log2g=-13 rate=81.2741
log2c=15 log2g=1 rate=61.0039
log2c=15 log2g=-11 rate=81.4672
log2c=15 log2g=-5 rate=74.3243
log2c=5 log2g=-15 rate=67.9537
log2c=-1 log2g=-15 rate=67.9537
log2c=11 log2g=-15 rate=76.6409
log2c=-3 log2g=-15 rate=67.9537
log2c=9 log2g=-15 rate=67.9537
log2c=3 log2g=-15 rate=67.9537
log2c=15 log2g=-15 rate=81.4672
log2c=-5 log2g=-7 rate=67.9537
log2c=-5 log2g=-1 rate=67.9537
log2c=-5 log2g=-13 rate=67.9537
log2c=-5 log2g=1 rate=67.9537
log2c=-5 log2g=-11 rate=67.9537
log2c=-5 log2g=-5 rate=67.9537
log2c=-5 log2g=-15 rate=67.9537
log2c=5 log2g=3 rate=64.2857
log2c=-1 log2g=3 rate=64.0927
log2c=11 log2g=3 rate=63.7066
log2c=-3 log2g=3 rate=68.3398
log2c=9 log2g=3 rate=63.7066
log2c=3 log2g=3 rate=64.2857
log2c=15 log2g=3 rate=63.7066
log2c=-5 log2g=3 rate=68.3398
log2c=7 log2g=-7 rate=81.4672
log2c=7 log2g=-1 rate=66.4093
log2c=7 log2g=-13 rate=67.9537
log2c=7 log2g=1 rate=61.0039
log2c=7 log2g=-11 rate=76.6409
log2c=7 log2g=-5 rate=81.4672
log2c=7 log2g=-15 rate=67.9537
log2c=7 log2g=3 rate=63.7066
log2c=5 log2g=-9 rate=76.6409
log2c=-1 log2g=-9 rate=67.9537
log2c=11 log2g=-9 rate=81.2741
log2c=-3 log2g=-9 rate=67.9537
log2c=9 log2g=-9 rate=81.4672
log2c=3 log2g=-9 rate=67.9537
log2c=15 log2g=-9 rate=81.2741
log2c=-5 log2g=-9 rate=67.9537
log2c=7 log2g=-9 rate=81.0811
log2c=1 log2g=-7 rate=67.9537
log2c=1 log2g=-1 rate=68.5328
log2c=1 log2g=-13 rate=67.9537
log2c=1 log2g=1 rate=61.9691
log2c=1 log2g=-11 rate=67.9537
log2c=1 log2g=-5 rate=76.6409
log2c=1 log2g=-15 rate=67.9537
log2c=1 log2g=3 rate=63.8996
log2c=1 log2g=-9 rate=67.9537
log2c=5 log2g=-3 rate=74.3243
log2c=-1 log2g=-3 rate=74.9035
log2c=11 log2g=-3 rate=72.973
log2c=-3 log2g=-3 rate=67.9537
log2c=9 log2g=-3 rate=72.7799
log2c=3 log2g=-3 rate=80.1158
log2c=15 log2g=-3 rate=71.4286
log2c=-5 log2g=-3 rate=67.9537
log2c=7 log2g=-3 rate=73.5521
log2c=1 log2g=-3 rate=80.5019
log2c=13 log2g=-7 rate=81.4672
log2c=13 log2g=-1 rate=66.4093
log2c=13 log2g=-13 rate=81.4672
log2c=13 log2g=1 rate=61.0039
log2c=13 log2g=-11 rate=81.2741
log2c=13 log2g=-5 rate=73.5521
log2c=13 log2g=-15 rate=81.0811
log2c=13 log2g=3 rate=63.7066
log2c=13 log2g=-9 rate=81.4672
log2c=13 log2g=-3 rate=72.973
