log2c=5 log2g=-7 rate=79.1506
log2c=-1 log2g=-7 rate=63.7066
log2c=5 log2g=-1 rate=63.5135
log2c=-1 log2g=-1 rate=72.5869
log2c=11 log2g=-7 rate=79.9228
log2c=11 log2g=-1 rate=64.2857
log2c=5 log2g=-13 rate=63.7066
log2c=-1 log2g=-13 rate=63.7066
log2c=11 log2g=-13 rate=79.1506
log2c=-3 log2g=-7 rate=63.7066
log2c=-3 log2g=-1 rate=74.9035
log2c=-3 log2g=-13 rate=63.7066
log2c=5 log2g=1 rate=66.6023
log2c=-1 log2g=1 rate=58.4942
log2c=11 log2g=1 rate=66.4093
log2c=-3 log2g=1 rate=66.7954
log2c=9 log2g=-7 rate=80.888
log2c=9 log2g=-1 rate=62.9344
log2c=9 log2g=-13 rate=77.2201
log2c=9 log2g=1 rate=66.4093
log2c=5 log2g=-11 rate=67.5676
log2c=-1 log2g=-11 rate=63.7066
log2c=11 log2g=-11 rate=80.3089
log2c=-3 log2g=-11 rate=63.7066
log2c=9 log2g=-11 rate=79.1506
log2c=3 log2g=-7 rate=77.2201
log2c=3 log2g=-1 rate=63.3205
log2c=3 log2g=-13 rate=63.7066
log2c=3 log2g=1 rate=66.6023
log2c=3 log2g=-11 rate=63.7066
log2c=5 log2g=-5 rate=79.7297
log2c=-1 log2g=-5 rate=67.5676
log2c=11 log2g=-5 rate=72.7799
log2c=-3 log2g=-5 rate=63.7066
log2c=9 log2g=-5 rate=76.4479
log2c=3 log2g=-5 rate=79.1506
log2c=15 log2g=-7 rate=76.4479
log2c=15 log2g=-1 rate=62.5483
log2c=15 log2g=-13 rate=80.888
log2c=15 log2g=1 rate=66.4093
log2c=15 log2g=-11 rate=80.695
log2c=15 log2g=-5 rate=75.2896
log2c=5 log2g=-15 rate=63.7066
log2c=-1 log2g=-15 rate=63.7066
log2c=11 log2g=-15 rate=77.2201
log2c=-3 log2g=-15 rate=63.7066
log2c=9 log2g=-15 rate=67.5676
log2c=3 log2g=-15 rate=63.7066
log2c=15 log2g=-15 rate=80.3089
log2c=-5 log2g=-7 rate=63.7066
log2c=-5 log2g=-1 rate=63.7066
log2c=-5 log2g=-13 rate=63.7066
log2c=-5 log2g=1 rate=65.0579
log2c=-5 log2g=-11 rate=63.7066
log2c=-5 log2g=-5 rate=63.7066
log2c=-5 log2g=-15 rate=63.7066
log2c=5 log2g=3 rate=60.4247
log2c=-1 log2g=3 rate=58.4942
log2c=11 log2g=3 rate=60.0386
log2c=-3 log2g=3 rate=65.0579
log2c=9 log2g=3 rate=60.0386
log2c=3 log2g=3 rate=59.0734
log2c=15 log2g=3 rate=60.0386
log2c=-5 log2g=3 rate=64.6718
log2c=7 log2g=-7 rate=80.1158
log2c=7 log2g=-1 rate=62.3552
log2c=7 log2g=-13 rate=67.5676
log2c=7 log2g=1 rate=66.4093
log2c=7 log2g=-11 rate=77.2201
log2c=7 log2g=-5 rate=79.5367
log2c=7 log2g=-15 rate=63.7066
log2c=7 log2g=3 rate=60.0386
log2c=5 log2g=-9 rate=77.2201
log2c=-1 log2g=-9 rate=63.7066
log2c=11 log2g=-9 rate=80.888
log2c=-3 log2g=-9 rate=63.7066
log2c=9 log2g=-9 rate=80.3089
log2c=3 log2g=-9 rate=67.5676
log2c=15 log2g=-9 rate=80.695
log2c=-5 log2g=-9 rate=63.7066
log2c=7 log2g=-9 rate=79.1506
log2c=1 log2g=-7 rate=67.5676
log2c=1 log2g=-1 rate=66.0232
log2c=1 log2g=-13 rate=63.7066
log2c=1 log2g=1 rate=66.2162
log2c=1 log2g=-11 rate=63.7066
log2c=1 log2g=-5 rate=77.2201
log2c=1 log2g=-15 rate=63.7066
log2c=1 log2g=3 rate=60.0386
log2c=1 log2g=-9 rate=63.7066
log2c=5 log2g=-3 rate=70.6564
log2c=-1 log2g=-3 rate=76.834
log2c=11 log2g=-3 rate=72.3938
log2c=-3 log2g=-3 rate=67.1815
log2c=9 log2g=-3 rate=71.2355
log2c=3 log2g=-3 rate=73.3591
log2c=15 log2g=-3 rate=69.6911
log2c=-5 log2g=-3 rate=63.7066
log2c=7 log2g=-3 rate=69.112
log2c=1 log2g=-3 rate=78.9575
log2c=13 log2g=-7 rate=79.5367
log2c=13 log2g=-1 rate=64.2857
log2c=13 log2g=-13 rate=80.3089
log2c=13 log2g=1 rate=66.4093
log2c=13 log2g=-11 rate=80.888
log2c=13 log2g=-5 rate=74.3243
log2c=13 log2g=-15 rate=79.1506
log2c=13 log2g=3 rate=60.0386
log2c=13 log2g=-9 rate=80.695
log2c=13 log2g=-3 rate=72.3938
