log2c=5 log2g=-7 rate=79.9228
log2c=-1 log2g=-7 rate=63.7066
log2c=5 log2g=-1 rate=80.888
log2c=-1 log2g=-1 rate=80.5019
log2c=11 log2g=-7 rate=80.1158
log2c=11 log2g=-1 rate=86.6795
log2c=5 log2g=-13 rate=63.7066
log2c=-1 log2g=-13 rate=63.7066
log2c=11 log2g=-13 rate=79.5367
log2c=-3 log2g=-7 rate=63.7066
log2c=-3 log2g=-1 rate=77.027
log2c=-3 log2g=-13 rate=63.7066
log2c=5 log2g=1 rate=85.1351
log2c=-1 log2g=1 rate=78.7645
log2c=11 log2g=1 rate=84.749
log2c=-3 log2g=1 rate=77.9923
log2c=9 log2g=-7 rate=80.1158
log2c=9 log2g=-1 rate=85.3282
log2c=9 log2g=-13 rate=77.9923
log2c=9 log2g=1 rate=84.749
log2c=5 log2g=-11 rate=75.0965
log2c=-1 log2g=-11 rate=63.7066
log2c=11 log2g=-11 rate=81.0811
log2c=-3 log2g=-11 rate=63.7066
log2c=9 log2g=-11 rate=79.5367
log2c=3 log2g=-7 rate=78.9575
log2c=3 log2g=-1 rate=79.9228
log2c=3 log2g=-13 rate=63.7066
log2c=3 log2g=1 rate=87.0656
log2c=3 log2g=-11 rate=63.7066
log2c=5 log2g=-5 rate=80.5019
log2c=-1 log2g=-5 rate=74.5174
log2c=11 log2g=-5 rate=81.0811
log2c=-3 log2g=-5 rate=63.7066
log2c=9 log2g=-5 rate=80.888
log2c=3 log2g=-5 rate=81.0811
log2c=15 log2g=-7 rate=81.8533
log2c=15 log2g=-1 rate=86.6795
log2c=15 log2g=-13 rate=81.0811
log2c=15 log2g=1 rate=84.749
log2c=15 log2g=-11 rate=80.888
log2c=15 log2g=-5 rate=81.0811
log2c=5 log2g=-15 rate=63.7066
log2c=-1 log2g=-15 rate=63.7066
log2c=11 log2g=-15 rate=77.9923
log2c=-3 log2g=-15 rate=63.7066
log2c=9 log2g=-15 rate=75.0965
log2c=3 log2g=-15 rate=63.7066
log2c=15 log2g=-15 rate=80.695
log2c=-5 log2g=-7 rate=63.7066
log2c=-5 log2g=-1 rate=64.0927
log2c=-5 log2g=-13 rate=63.7066
log2c=-5 log2g=1 rate=63.7066
log2c=-5 log2g=-11 rate=63.7066
log2c=-5 log2g=-5 rate=63.7066
log2c=-5 log2g=-15 rate=63.7066
log2c=5 log2g=3 rate=85.7143
log2c=-1 log2g=3 rate=81.4672
log2c=11 log2g=3 rate=85.7143
log2c=-3 log2g=3 rate=63.7066
log2c=9 log2g=3 rate=85.7143
log2c=3 log2g=3 rate=85.7143
log2c=15 log2g=3 rate=85.7143
log2c=-5 log2g=3 rate=63.7066
log2c=7 log2g=-7 rate=81.2741
log2c=7 log2g=-1 rate=83.9768
log2c=7 log2g=-13 rate=75.0965
log2c=7 log2g=1 rate=84.749
log2c=7 log2g=-11 rate=77.9923
log2c=7 log2g=-5 rate=80.5019
log2c=7 log2g=-15 rate=63.7066
log2c=7 log2g=3 rate=85.7143
log2c=5 log2g=-9 rate=77.9923
log2c=-1 log2g=-9 rate=63.7066
log2c=11 log2g=-9 rate=80.695
log2c=-3 log2g=-9 rate=63.7066
log2c=9 log2g=-9 rate=80.888
log2c=3 log2g=-9 rate=75.0965
log2c=15 log2g=-9 rate=80.1158
log2c=-5 log2g=-9 rate=63.7066
log2c=7 log2g=-9 rate=79.5367
log2c=1 log2g=-7 rate=74.7104
log2c=1 log2g=-1 rate=80.3089
log2c=1 log2g=-13 rate=63.7066
log2c=1 log2g=1 rate=82.6255
log2c=1 log2g=-11 rate=63.7066
log2c=1 log2g=-5 rate=78.7645
log2c=1 log2g=-15 rate=63.7066
log2c=1 log2g=3 rate=85.9073
log2c=1 log2g=-9 rate=63.7066
log2c=5 log2g=-3 rate=80.695
log2c=-1 log2g=-3 rate=78.1853
log2c=11 log2g=-3 rate=81.6602
log2c=-3 log2g=-3 rate=72.3938
log2c=9 log2g=-3 rate=80.3089
log2c=3 log2g=-3 rate=81.0811
log2c=15 log2g=-3 rate=84.3629
log2c=-5 log2g=-3 rate=63.7066
log2c=7 log2g=-3 rate=80.888
log2c=1 log2g=-3 rate=80.1158
log2c=13 log2g=-7 rate=80.888
log2c=13 log2g=-1 rate=86.6795
log2c=13 log2g=-13 rate=80.5019
log2c=13 log2g=1 rate=84.749
log2c=13 log2g=-11 rate=80.888
log2c=13 log2g=-5 rate=81.4672
log2c=13 log2g=-15 rate=79.5367
log2c=13 log2g=3 rate=85.7143
log2c=13 log2g=-9 rate=80.3089
log2c=13 log2g=-3 rate=84.1699
