log2c=5 log2g=-7 rate=64.6718
log2c=-1 log2g=-7 rate=64.6718
log2c=5 log2g=-1 rate=82.2394
log2c=-1 log2g=-1 rate=81.6602
log2c=11 log2g=-7 rate=64.6718
log2c=11 log2g=-1 rate=83.2046
log2c=5 log2g=-13 rate=64.6718
log2c=-1 log2g=-13 rate=64.6718
log2c=11 log2g=-13 rate=64.6718
log2c=-3 log2g=-7 rate=64.6718
log2c=-3 log2g=-1 rate=78.9575
log2c=-3 log2g=-13 rate=64.6718
log2c=5 log2g=1 rate=83.2046
log2c=-1 log2g=1 rate=82.2394
log2c=11 log2g=1 rate=84.9421
log2c=-3 log2g=1 rate=80.695
log2c=9 log2g=-7 rate=64.6718
log2c=9 log2g=-1 rate=83.3977
log2c=9 log2g=-13 rate=64.6718
log2c=9 log2g=1 rate=84.749
log2c=5 log2g=-11 rate=64.6718
log2c=-1 log2g=-11 rate=64.6718
log2c=11 log2g=-11 rate=64.6718
log2c=-3 log2g=-11 rate=64.6718
log2c=9 log2g=-11 rate=64.6718
log2c=3 log2g=-7 rate=64.6718
log2c=3 log2g=-1 rate=80.695
log2c=3 log2g=-13 rate=64.6718
log2c=3 log2g=1 rate=83.3977
log2c=3 log2g=-11 rate=64.6718
log2c=5 log2g=-5 rate=64.6718
log2c=-1 log2g=-5 rate=64.6718
log2c=11 log2g=-5 rate=81.6602
log2c=-3 log2g=-5 rate=64.6718
log2c=9 log2g=-5 rate=78.9575
log2c=3 log2g=-5 rate=64.6718
log2c=15 log2g=-7 rate=78.9575
log2c=15 log2g=-1 rate=84.749
log2c=15 log2g=-13 rate=64.6718
log2c=15 log2g=1 rate=84.9421
log2c=15 log2g=-11 rate=64.6718
log2c=15 log2g=-5 rate=80.695
log2c=5 log2g=-15 rate=64.6718
log2c=-1 log2g=-15 rate=64.6718
log2c=11 log2g=-15 rate=64.6718
log2c=-3 log2g=-15 rate=64.6718
log2c=9 log2g=-15 rate=64.6718
log2c=3 log2g=-15 rate=64.6718
log2c=15 log2g=-15 rate=64.6718
log2c=-5 log2g=-7 rate=64.6718
log2c=-5 log2g=-1 rate=76.6409
log2c=-5 log2g=-13 rate=64.6718
log2c=-5 log2g=1 rate=80.695
log2c=-5 log2g=-11 rate=64.6718
log2c=-5 log2g=-5 rate=64.6718
log2c=-5 log2g=-15 rate=64.6718
log2c=5 log2g=3 rate=84.9421
log2c=-1 log2g=3 rate=83.2046
log2c=11 log2g=3 rate=84.9421
log2c=-3 log2g=3 rate=83.3977
log2c=9 log2g=3 rate=84.9421
log2c=3 log2g=3 rate=84.749
log2c=15 log2g=3 rate=84.9421
log2c=-5 log2g=3 rate=82.2394
log2c=7 log2g=-7 rate=64.6718
log2c=7 log2g=-1 rate=82.2394
log2c=7 log2g=-13 rate=64.6718
log2c=7 log2g=1 rate=83.9768
log2c=7 log2g=-11 rate=64.6718
log2c=7 log2g=-5 rate=76.6409
log2c=7 log2g=-15 rate=64.6718
log2c=7 log2g=3 rate=84.9421
log2c=5 log2g=-9 rate=64.6718
log2c=-1 log2g=-9 rate=64.6718
log2c=11 log2g=-9 rate=64.6718
log2c=-3 log2g=-9 rate=64.6718
log2c=9 log2g=-9 rate=64.6718
log2c=3 log2g=-9 rate=64.6718
log2c=15 log2g=-9 rate=64.6718
log2c=-5 log2g=-9 rate=64.6718
log2c=7 log2g=-9 rate=64.6718
log2c=1 log2g=-7 rate=64.6718
log2c=1 log2g=-1 rate=80.695
log2c=1 log2g=-13 rate=64.6718
log2c=1 log2g=1 rate=82.2394
log2c=1 log2g=-11 rate=64.6718
log2c=1 log2g=-5 rate=64.6718
log2c=1 log2g=-15 rate=64.6718
log2c=1 log2g=3 rate=83.9768
log2c=1 log2g=-9 rate=64.6718
log2c=5 log2g=-3 rate=81.6602
log2c=-1 log2g=-3 rate=64.6718
log2c=11 log2g=-3 rate=82.2394
log2c=-3 log2g=-3 rate=64.6718
log2c=9 log2g=-3 rate=80.695
log2c=3 log2g=-3 rate=78.9575
log2c=15 log2g=-3 rate=83.3977
log2c=-5 log2g=-3 rate=64.6718
log2c=7 log2g=-3 rate=80.695
log2c=1 log2g=-3 rate=76.6409
log2c=13 log2g=-7 rate=76.6409
log2c=13 log2g=-1 rate=83.9768
log2c=13 log2g=-13 rate=64.6718
log2c=13 log2g=1 rate=84.9421
log2c=13 log2g=-11 rate=64.6718
log2c=13 log2g=-5 rate=80.695
log2c=13 log2g=-15 rate=64.6718
log2c=13 log2g=3 rate=84.9421
log2c=13 log2g=-9 rate=64.6718
log2c=13 log2g=-3 rate=82.2394
