log2c=5 log2g=-7 rate=82.2394
log2c=-1 log2g=-7 rate=68.9189
log2c=5 log2g=-1 rate=67.3745
log2c=-1 log2g=-1 rate=77.2201
log2c=11 log2g=-7 rate=83.2046
log2c=11 log2g=-1 rate=68.1467
log2c=5 log2g=-13 rate=68.9189
log2c=-1 log2g=-13 rate=68.9189
log2c=11 log2g=-13 rate=82.2394
log2c=-3 log2g=-7 rate=68.9189
log2c=-3 log2g=-1 rate=70.0772
log2c=-3 log2g=-13 rate=68.9189
log2c=5 log2g=1 rate=67.5676
log2c=-1 log2g=1 rate=69.305
log2c=11 log2g=1 rate=67.7606
log2c=-3 log2g=1 rate=68.9189
log2c=9 log2g=-7 rate=82.6255
log2c=9 log2g=-1 rate=67.9537
log2c=9 log2g=-13 rate=78.7645
log2c=9 log2g=1 rate=67.7606
log2c=5 log2g=-11 rate=68.9189
log2c=-1 log2g=-11 rate=68.9189
log2c=11 log2g=-11 rate=82.6255
log2c=-3 log2g=-11 rate=68.9189
log2c=9 log2g=-11 rate=82.2394
log2c=3 log2g=-7 rate=78.7645
log2c=3 log2g=-1 rate=69.8842
log2c=3 log2g=-13 rate=68.9189
log2c=3 log2g=1 rate=68.1467
log2c=3 log2g=-11 rate=68.9189
log2c=5 log2g=-5 rate=82.0463
log2c=-1 log2g=-5 rate=68.9189
log2c=11 log2g=-5 rate=79.5367
log2c=-3 log2g=-5 rate=68.9189
log2c=9 log2g=-5 rate=82.4324
log2c=3 log2g=-5 rate=82.2394
log2c=15 log2g=-7 rate=82.4324
log2c=15 log2g=-1 rate=68.1467
log2c=15 log2g=-13 rate=82.6255
log2c=15 log2g=1 rate=67.7606
log2c=15 log2g=-11 rate=83.2046
log2c=15 log2g=-5 rate=74.3243
log2c=5 log2g=-15 rate=68.9189
log2c=-1 log2g=-15 rate=68.9189
log2c=11 log2g=-15 rate=78.7645
log2c=-3 log2g=-15 rate=68.9189
log2c=9 log2g=-15 rate=68.9189
log2c=3 log2g=-15 rate=68.9189
log2c=15 log2g=-15 rate=82.6255
log2c=-5 log2g=-7 rate=68.9189
log2c=-5 log2g=-1 rate=68.9189
log2c=-5 log2g=-13 rate=68.9189
log2c=-5 log2g=1 rate=68.9189
log2c=-5 log2g=-11 rate=68.9189
log2c=-5 log2g=-5 rate=68.9189
log2c=-5 log2g=-15 rate=68.9189
log2c=5 log2g=3 rate=61.7761
log2c=-1 log2g=3 rate=68.9189
log2c=11 log2g=3 rate=58.6873
log2c=-3 log2g=3 rate=68.9189
log2c=9 log2g=3 rate=58.4942
log2c=3 log2g=3 rate=68.5328
log2c=15 log2g=3 rate=58.6873
log2c=-5 log2g=3 rate=68.9189
log2c=7 log2g=-7 rate=82.6255
log2c=7 log2g=-1 rate=67.9537
log2c=7 log2g=-13 rate=68.9189
log2c=7 log2g=1 rate=67.3745
log2c=7 log2g=-11 rate=78.7645
log2c=7 log2g=-5 rate=82.6255
log2c=7 log2g=-15 rate=68.9189
log2c=7 log2g=3 rate=59.2664
log2c=5 log2g=-9 rate=78.7645
log2c=-1 log2g=-9 rate=68.9189
log2c=11 log2g=-9 rate=82.6255
log2c=-3 log2g=-9 rate=68.9189
log2c=9 log2g=-9 rate=82.6255
log2c=3 log2g=-9 rate=68.9189
log2c=15 log2g=-9 rate=83.2046
log2c=-5 log2g=-9 rate=68.9189
log2c=7 log2g=-9 rate=82.2394
log2c=1 log2g=-7 rate=68.9189
log2c=1 log2g=-1 rate=70.8494
log2c=1 log2g=-13 rate=68.9189
log2c=1 log2g=1 rate=70.6564
log2c=1 log2g=-11 rate=68.9189
log2c=1 log2g=-5 rate=78.7645
log2c=1 log2g=-15 rate=68.9189
log2c=1 log2g=3 rate=68.7259
log2c=1 log2g=-9 rate=68.9189
log2c=5 log2g=-3 rate=77.6062
log2c=-1 log2g=-3 rate=78.1853
log2c=11 log2g=-3 rate=75.8687
log2c=-3 log2g=-3 rate=68.9189
log2c=9 log2g=-3 rate=75.2896
log2c=3 log2g=-3 rate=81.4672
log2c=15 log2g=-3 rate=75.8687
log2c=-5 log2g=-3 rate=68.9189
log2c=7 log2g=-3 rate=75.2896
log2c=1 log2g=-3 rate=81.8533
log2c=13 log2g=-7 rate=83.0116
log2c=13 log2g=-1 rate=68.1467
log2c=13 log2g=-13 rate=82.6255
log2c=13 log2g=1 rate=67.7606
log2c=13 log2g=-11 rate=82.8185
log2c=13 log2g=-5 rate=75.8687
log2c=13 log2g=-15 rate=82.2394
log2c=13 log2g=3 rate=58.6873
log2c=13 log2g=-9 rate=83.2046
log2c=13 log2g=-3 rate=76.0618
