log2c=5 log2g=-7 rate=79.5367
log2c=-1 log2g=-7 rate=66.2162
log2c=5 log2g=-1 rate=86.2934
log2c=-1 log2g=-1 rate=80.888
log2c=11 log2g=-7 rate=82.0463
log2c=11 log2g=-1 rate=88.9961
log2c=5 log2g=-13 rate=66.2162
log2c=-1 log2g=-13 rate=66.2162
log2c=11 log2g=-13 rate=78.9575
log2c=-3 log2g=-7 rate=66.2162
log2c=-3 log2g=-1 rate=78.7645
log2c=-3 log2g=-13 rate=66.2162
log2c=5 log2g=1 rate=90.3475
log2c=-1 log2g=1 rate=84.749
log2c=11 log2g=1 rate=90.1544
log2c=-3 log2g=1 rate=76.6409
log2c=9 log2g=-7 rate=80.5019
log2c=9 log2g=-1 rate=87.2587
log2c=9 log2g=-13 rate=77.9923
log2c=9 log2g=1 rate=90.1544
log2c=5 log2g=-11 rate=75.6757
log2c=-1 log2g=-11 rate=66.2162
log2c=11 log2g=-11 rate=80.1158
log2c=-3 log2g=-11 rate=66.2162
log2c=9 log2g=-11 rate=78.9575
log2c=3 log2g=-7 rate=77.7992
log2c=3 log2g=-1 rate=85.7143
log2c=3 log2g=-13 rate=66.2162
log2c=3 log2g=1 rate=87.6448
log2c=3 log2g=-11 rate=66.2162
log2c=5 log2g=-5 rate=81.0811
log2c=-1 log2g=-5 rate=75.8687
log2c=11 log2g=-5 rate=84.3629
log2c=-3 log2g=-5 rate=66.2162
log2c=9 log2g=-5 rate=82.6255
log2c=3 log2g=-5 rate=80.1158
log2c=15 log2g=-7 rate=83.7838
log2c=15 log2g=-1 rate=88.9961
log2c=15 log2g=-13 rate=79.7297
log2c=15 log2g=1 rate=90.1544
log2c=15 log2g=-11 rate=80.5019
log2c=15 log2g=-5 rate=84.9421
log2c=5 log2g=-15 rate=66.2162
log2c=-1 log2g=-15 rate=66.2162
log2c=11 log2g=-15 rate=77.9923
log2c=-3 log2g=-15 rate=66.2162
log2c=9 log2g=-15 rate=75.6757
log2c=3 log2g=-15 rate=66.2162
log2c=15 log2g=-15 rate=80.1158
log2c=-5 log2g=-7 rate=66.2162
log2c=-5 log2g=-1 rate=66.2162
log2c=-5 log2g=-13 rate=66.2162
log2c=-5 log2g=1 rate=66.2162
log2c=-5 log2g=-11 rate=66.2162
log2c=-5 log2g=-5 rate=66.2162
log2c=-5 log2g=-15 rate=66.2162
log2c=5 log2g=3 rate=88.0309
log2c=-1 log2g=3 rate=82.6255
log2c=11 log2g=3 rate=88.0309
log2c=-3 log2g=3 rate=66.2162
log2c=9 log2g=3 rate=88.0309
log2c=3 log2g=3 rate=88.0309
log2c=15 log2g=3 rate=88.0309
log2c=-5 log2g=3 rate=66.2162
log2c=7 log2g=-7 rate=80.5019
log2c=7 log2g=-1 rate=85.3282
log2c=7 log2g=-13 rate=75.6757
log2c=7 log2g=1 rate=90.1544
log2c=7 log2g=-11 rate=77.9923
log2c=7 log2g=-5 rate=82.0463
log2c=7 log2g=-15 rate=66.2162
log2c=7 log2g=3 rate=88.0309
log2c=5 log2g=-9 rate=77.9923
log2c=-1 log2g=-9 rate=66.2162
log2c=11 log2g=-9 rate=80.5019
log2c=-3 log2g=-9 rate=66.2162
log2c=9 log2g=-9 rate=80.1158
log2c=3 log2g=-9 rate=75.6757
log2c=15 log2g=-9 rate=82.0463
log2c=-5 log2g=-9 rate=66.2162
log2c=7 log2g=-9 rate=79.5367
log2c=1 log2g=-7 rate=75.2896
log2c=1 log2g=-1 rate=83.7838
log2c=1 log2g=-13 rate=66.2162
log2c=1 log2g=1 rate=87.0656
log2c=1 log2g=-11 rate=66.2162
log2c=1 log2g=-5 rate=78.1853
log2c=1 log2g=-15 rate=66.2162
log2c=1 log2g=3 rate=87.8378
log2c=1 log2g=-9 rate=66.2162
log2c=5 log2g=-3 rate=83.0116
log2c=-1 log2g=-3 rate=77.7992
log2c=11 log2g=-3 rate=84.3629
log2c=-3 log2g=-3 rate=71.8147
log2c=9 log2g=-3 rate=84.1699
log2c=3 log2g=-3 rate=81.6602
log2c=15 log2g=-3 rate=86.6795
log2c=-5 log2g=-3 rate=66.2162
log2c=7 log2g=-3 rate=85.5212
log2c=1 log2g=-3 rate=81.6602
log2c=13 log2g=-7 rate=82.2394
log2c=13 log2g=-1 rate=88.9961
log2c=13 log2g=-13 rate=80.1158
log2c=13 log2g=1 rate=90.1544
log2c=13 log2g=-11 rate=80.1158
log2c=13 log2g=-5 rate=84.749
log2c=13 log2g=-15 rate=78.7645
log2c=13 log2g=3 rate=88.0309
log2c=13 log2g=-9 rate=80.695
log2c=13 log2g=-3 rate=85.9073
