log2c=5 log2g=-7 rate=77.027
log2c=-1 log2g=-7 rate=76.4479
log2c=5 log2g=-1 rate=77.027
log2c=-1 log2g=-1 rate=76.4479
log2c=11 log2g=-7 rate=77.2201
log2c=11 log2g=-1 rate=77.2201
log2c=5 log2g=-13 rate=77.027
log2c=-1 log2g=-13 rate=76.4479
log2c=11 log2g=-13 rate=77.2201
log2c=-3 log2g=-7 rate=76.2548
log2c=-3 log2g=-1 rate=76.2548
log2c=-3 log2g=-13 rate=76.2548
log2c=5 log2g=1 rate=77.027
log2c=-1 log2g=1 rate=76.4479
log2c=11 log2g=1 rate=77.2201
log2c=-3 log2g=1 rate=76.2548
log2c=9 log2g=-7 rate=77.027
log2c=9 log2g=-1 rate=77.027
log2c=9 log2g=-13 rate=77.027
log2c=9 log2g=1 rate=77.027
log2c=5 log2g=-11 rate=77.027
log2c=-1 log2g=-11 rate=76.4479
log2c=11 log2g=-11 rate=77.2201
log2c=-3 log2g=-11 rate=76.2548
log2c=9 log2g=-11 rate=77.027
log2c=3 log2g=-7 rate=76.834
log2c=3 log2g=-1 rate=76.834
log2c=3 log2g=-13 rate=76.834
log2c=3 log2g=1 rate=76.834
log2c=3 log2g=-11 rate=76.834
log2c=5 log2g=-5 rate=77.027
log2c=-1 log2g=-5 rate=76.4479
log2c=11 log2g=-5 rate=77.2201
log2c=-3 log2g=-5 rate=76.2548
log2c=9 log2g=-5 rate=77.027
log2c=3 log2g=-5 rate=76.834
log2c=15 log2g=-7 rate=77.2201
log2c=15 log2g=-1 rate=77.2201
log2c=15 log2g=-13 rate=77.2201
log2c=15 log2g=1 rate=77.2201
log2c=15 log2g=-11 rate=77.2201
log2c=15 log2g=-5 rate=77.2201
log2c=5 log2g=-15 rate=77.027
log2c=-1 log2g=-15 rate=76.4479
log2c=11 log2g=-15 rate=77.2201
log2c=-3 log2g=-15 rate=76.2548
log2c=9 log2g=-15 rate=77.027
log2c=3 log2g=-15 rate=76.834
log2c=15 log2g=-15 rate=77.2201
log2c=-5 log2g=-7 rate=66.4093
log2c=-5 log2g=-1 rate=66.4093
log2c=-5 log2g=-13 rate=66.4093
log2c=-5 log2g=1 rate=66.4093
log2c=-5 log2g=-11 rate=66.4093
log2c=-5 log2g=-5 rate=66.4093
log2c=-5 log2g=-15 rate=66.4093
log2c=5 log2g=3 rate=77.027
log2c=-1 log2g=3 rate=76.4479
log2c=11 log2g=3 rate=77.2201
log2c=-3 log2g=3 rate=76.2548
log2c=9 log2g=3 rate=77.027
log2c=3 log2g=3 rate=76.834
log2c=15 log2g=3 rate=77.2201
log2c=-5 log2g=3 rate=66.4093
log2c=7 log2g=-7 rate=77.027
log2c=7 log2g=-1 rate=77.027
log2c=7 log2g=-13 rate=77.027
log2c=7 log2g=1 rate=77.027
log2c=7 log2g=-11 rate=77.027
log2c=7 log2g=-5 rate=77.027
log2c=7 log2g=-15 rate=77.027
log2c=7 log2g=3 rate=77.027
log2c=5 log2g=-9 rate=77.027
log2c=-1 log2g=-9 rate=76.4479
log2c=11 log2g=-9 rate=77.2201
log2c=-3 log2g=-9 rate=76.2548
log2c=9 log2g=-9 rate=77.027
log2c=3 log2g=-9 rate=76.834
log2c=15 log2g=-9 rate=77.2201
log2c=-5 log2g=-9 rate=66.4093
log2c=7 log2g=-9 rate=77.027
log2c=1 log2g=-7 rate=76.834
log2c=1 log2g=-1 rate=76.834
log2c=1 log2g=-13 rate=76.834
log2c=1 log2g=1 rate=76.834
log2c=1 log2g=-11 rate=76.834
log2c=1 log2g=-5 rate=76.834
log2c=1 log2g=-15 rate=76.834
log2c=1 log2g=3 rate=76.834
log2c=1 log2g=-9 rate=76.834
log2c=5 log2g=-3 rate=77.027
log2c=-1 log2g=-3 rate=76.4479
log2c=11 log2g=-3 rate=77.2201
log2c=-3 log2g=-3 rate=76.2548
log2c=9 log2g=-3 rate=77.027
log2c=3 log2g=-3 rate=76.834
log2c=15 log2g=-3 rate=77.2201
log2c=-5 log2g=-3 rate=66.4093
log2c=7 log2g=-3 rate=77.027
log2c=1 log2g=-3 rate=76.834
log2c=13 log2g=-7 rate=77.2201
log2c=13 log2g=-1 rate=77.2201
log2c=13 log2g=-13 rate=77.2201
log2c=13 log2g=1 rate=77.2201
log2c=13 log2g=-11 rate=77.2201
log2c=13 log2g=-5 rate=77.2201
log2c=13 log2g=-15 rate=77.2201
log2c=13 log2g=3 rate=77.2201
log2c=13 log2g=-9 rate=77.2201
log2c=13 log2g=-3 rate=77.2201
