log2c=5 log2g=-7 rate=65.6371
log2c=-1 log2g=-7 rate=65.6371
log2c=5 log2g=-1 rate=82.4324
log2c=-1 log2g=-1 rate=81.0811
log2c=11 log2g=-7 rate=65.6371
log2c=11 log2g=-1 rate=84.3629
log2c=5 log2g=-13 rate=65.6371
log2c=-1 log2g=-13 rate=65.6371
log2c=11 log2g=-13 rate=65.6371
log2c=-3 log2g=-7 rate=65.6371
log2c=-3 log2g=-1 rate=81.0811
log2c=-3 log2g=-13 rate=65.6371
log2c=5 log2g=1 rate=84.3629
log2c=-1 log2g=1 rate=82.4324
log2c=11 log2g=1 rate=85.9073
log2c=-3 log2g=1 rate=83.0116
log2c=9 log2g=-7 rate=65.6371
log2c=9 log2g=-1 rate=82.8185
log2c=9 log2g=-13 rate=65.6371
log2c=9 log2g=1 rate=86.2934
log2c=5 log2g=-11 rate=65.6371
log2c=-1 log2g=-11 rate=65.6371
log2c=11 log2g=-11 rate=65.6371
log2c=-3 log2g=-11 rate=65.6371
log2c=9 log2g=-11 rate=65.6371
log2c=3 log2g=-7 rate=65.6371
log2c=3 log2g=-1 rate=83.0116
log2c=3 log2g=-13 rate=65.6371
log2c=3 log2g=1 rate=82.8185
log2c=3 log2g=-11 rate=65.6371
log2c=5 log2g=-5 rate=65.6371
log2c=-1 log2g=-5 rate=65.6371
log2c=11 log2g=-5 rate=81.0811
log2c=-3 log2g=-5 rate=65.6371
log2c=9 log2g=-5 rate=81.0811
log2c=3 log2g=-5 rate=65.6371
log2c=15 log2g=-7 rate=81.0811
log2c=15 log2g=-1 rate=86.2934
log2c=15 log2g=-13 rate=65.6371
log2c=15 log2g=1 rate=85.9073
log2c=15 log2g=-11 rate=65.6371
log2c=15 log2g=-5 rate=83.0116
log2c=5 log2g=-15 rate=65.6371
log2c=-1 log2g=-15 rate=65.6371
log2c=11 log2g=-15 rate=65.6371
log2c=-3 log2g=-15 rate=65.6371
log2c=9 log2g=-15 rate=65.6371
log2c=3 log2g=-15 rate=65.6371
log2c=15 log2g=-15 rate=65.6371
log2c=-5 log2g=-7 rate=65.6371
log2c=-5 log2g=-1 rate=73.7452
log2c=-5 log2g=-13 rate=65.6371
log2c=-5 log2g=1 rate=81.8533
log2c=-5 log2g=-11 rate=65.6371
log2c=-5 log2g=-5 rate=65.6371
log2c=-5 log2g=-15 rate=65.6371
log2c=5 log2g=3 rate=85.9073
log2c=-1 log2g=3 rate=84.3629
log2c=11 log2g=3 rate=85.9073
log2c=-3 log2g=3 rate=82.8185
log2c=9 log2g=3 rate=85.9073
log2c=3 log2g=3 rate=86.2934
log2c=15 log2g=3 rate=85.9073
log2c=-5 log2g=3 rate=83.2046
log2c=7 log2g=-7 rate=65.6371
log2c=7 log2g=-1 rate=83.2046
log2c=7 log2g=-13 rate=65.6371
log2c=7 log2g=1 rate=85.5212
log2c=7 log2g=-11 rate=65.6371
log2c=7 log2g=-5 rate=73.7452
log2c=7 log2g=-15 rate=65.6371
log2c=7 log2g=3 rate=85.9073
log2c=5 log2g=-9 rate=65.6371
log2c=-1 log2g=-9 rate=65.6371
log2c=11 log2g=-9 rate=65.6371
log2c=-3 log2g=-9 rate=65.6371
log2c=9 log2g=-9 rate=65.6371
log2c=3 log2g=-9 rate=65.6371
log2c=15 log2g=-9 rate=65.6371
log2c=-5 log2g=-9 rate=65.6371
log2c=7 log2g=-9 rate=65.6371
log2c=1 log2g=-7 rate=65.6371
log2c=1 log2g=-1 rate=81.8533
log2c=1 log2g=-13 rate=65.6371
log2c=1 log2g=1 rate=83.2046
log2c=1 log2g=-11 rate=65.6371
log2c=1 log2g=-5 rate=65.6371
log2c=1 log2g=-15 rate=65.6371
log2c=1 log2g=3 rate=85.5212
log2c=1 log2g=-9 rate=65.6371
log2c=5 log2g=-3 rate=81.0811
log2c=-1 log2g=-3 rate=65.6371
log2c=11 log2g=-3 rate=82.4324
log2c=-3 log2g=-3 rate=65.6371
log2c=9 log2g=-3 rate=83.0116
log2c=3 log2g=-3 rate=81.0811
log2c=15 log2g=-3 rate=82.8185
log2c=-5 log2g=-3 rate=65.6371
log2c=7 log2g=-3 rate=81.8533
log2c=1 log2g=-3 rate=73.7452
log2c=13 log2g=-7 rate=73.7452
log2c=13 log2g=-1 rate=85.5212
log2c=13 log2g=-13 rate=65.6371
log2c=13 log2g=1 rate=85.9073
log2c=13 log2g=-11 rate=65.6371
log2c=13 log2g=-5 rate=81.8533
log2c=13 log2g=-15 rate=65.6371
log2c=13 log2g=3 rate=85.9073
log2c=13 log2g=-9 rate=65.6371
log2c=13 log2g=-3 rate=83.2046
