log2c=5 log2g=-7 rate=81.0811
log2c=-1 log2g=-7 rate=67.9537
log2c=5 log2g=-1 rate=84.3629
log2c=-1 log2g=-1 rate=81.0811
log2c=11 log2g=-7 rate=81.2741
log2c=11 log2g=-1 rate=85.5212
log2c=5 log2g=-13 rate=67.9537
log2c=-1 log2g=-13 rate=67.9537
log2c=11 log2g=-13 rate=81.0811
log2c=-3 log2g=-7 rate=67.9537
log2c=-3 log2g=-1 rate=77.027
log2c=-3 log2g=-13 rate=67.9537
log2c=5 log2g=1 rate=85.9073
log2c=-1 log2g=1 rate=83.3977
log2c=11 log2g=1 rate=86.1004
log2c=-3 log2g=1 rate=72.0077
log2c=9 log2g=-7 rate=81.2741
log2c=9 log2g=-1 rate=86.8726
log2c=9 log2g=-13 rate=81.0811
log2c=9 log2g=1 rate=86.1004
log2c=5 log2g=-11 rate=69.112
log2c=-1 log2g=-11 rate=67.9537
log2c=11 log2g=-11 rate=81.8533
log2c=-3 log2g=-11 rate=67.9537
log2c=9 log2g=-11 rate=81.0811
log2c=3 log2g=-7 rate=80.888
log2c=3 log2g=-1 rate=83.7838
log2c=3 log2g=-13 rate=67.9537
log2c=3 log2g=1 rate=87.8378
log2c=3 log2g=-11 rate=67.9537
log2c=5 log2g=-5 rate=81.2741
log2c=-1 log2g=-5 rate=68.9189
log2c=11 log2g=-5 rate=81.8533
log2c=-3 log2g=-5 rate=67.9537
log2c=9 log2g=-5 rate=81.8533
log2c=3 log2g=-5 rate=81.0811
log2c=15 log2g=-7 rate=81.6602
log2c=15 log2g=-1 rate=85.9073
log2c=15 log2g=-13 rate=81.0811
log2c=15 log2g=1 rate=86.1004
log2c=15 log2g=-11 rate=82.2394
log2c=15 log2g=-5 rate=84.3629
log2c=5 log2g=-15 rate=67.9537
log2c=-1 log2g=-15 rate=67.9537
log2c=11 log2g=-15 rate=81.0811
log2c=-3 log2g=-15 rate=67.9537
log2c=9 log2g=-15 rate=69.112
log2c=3 log2g=-15 rate=67.9537
log2c=15 log2g=-15 rate=81.8533
log2c=-5 log2g=-7 rate=67.9537
log2c=-5 log2g=-1 rate=67.9537
log2c=-5 log2g=-13 rate=67.9537
log2c=-5 log2g=1 rate=67.9537
log2c=-5 log2g=-11 rate=67.9537
log2c=-5 log2g=-5 rate=67.9537
log2c=-5 log2g=-15 rate=67.9537
log2c=5 log2g=3 rate=87.0656
log2c=-1 log2g=3 rate=82.8185
log2c=11 log2g=3 rate=87.0656
log2c=-3 log2g=3 rate=67.9537
log2c=9 log2g=3 rate=87.0656
log2c=3 log2g=3 rate=87.0656
log2c=15 log2g=3 rate=87.0656
log2c=-5 log2g=3 rate=67.9537
log2c=7 log2g=-7 rate=82.0463
log2c=7 log2g=-1 rate=85.5212
log2c=7 log2g=-13 rate=69.112
log2c=7 log2g=1 rate=86.1004
log2c=7 log2g=-11 rate=81.0811
log2c=7 log2g=-5 rate=81.4672
log2c=7 log2g=-15 rate=67.9537
log2c=7 log2g=3 rate=87.0656
log2c=5 log2g=-9 rate=81.0811
log2c=-1 log2g=-9 rate=67.9537
log2c=11 log2g=-9 rate=82.0463
log2c=-3 log2g=-9 rate=67.9537
log2c=9 log2g=-9 rate=81.8533
log2c=3 log2g=-9 rate=69.112
log2c=15 log2g=-9 rate=81.2741
log2c=-5 log2g=-9 rate=67.9537
log2c=7 log2g=-9 rate=81.0811
log2c=1 log2g=-7 rate=68.9189
log2c=1 log2g=-1 rate=83.2046
log2c=1 log2g=-13 rate=67.9537
log2c=1 log2g=1 rate=85.7143
log2c=1 log2g=-11 rate=67.9537
log2c=1 log2g=-5 rate=80.5019
log2c=1 log2g=-15 rate=67.9537
log2c=1 log2g=3 rate=87.0656
log2c=1 log2g=-9 rate=67.9537
log2c=5 log2g=-3 rate=81.6602
log2c=-1 log2g=-3 rate=80.888
log2c=11 log2g=-3 rate=85.9073
log2c=-3 log2g=-3 rate=68.3398
log2c=9 log2g=-3 rate=84.9421
log2c=3 log2g=-3 rate=81.6602
log2c=15 log2g=-3 rate=86.6795
log2c=-5 log2g=-3 rate=67.9537
log2c=7 log2g=-3 rate=83.7838
log2c=1 log2g=-3 rate=80.888
log2c=13 log2g=-7 rate=82.0463
log2c=13 log2g=-1 rate=85.9073
log2c=13 log2g=-13 rate=81.8533
log2c=13 log2g=1 rate=86.1004
log2c=13 log2g=-11 rate=81.2741
log2c=13 log2g=-5 rate=82.4324
log2c=13 log2g=-15 rate=81.0811
log2c=13 log2g=3 rate=87.0656
log2c=13 log2g=-9 rate=81.2741
log2c=13 log2g=-3 rate=84.9421
