log2c=5 log2g=-7 rate=76.0618
log2c=-1 log2g=-7 rate=64.0927
log2c=5 log2g=-1 rate=61.7761
log2c=-1 log2g=-1 rate=72.7799
log2c=11 log2g=-7 rate=77.2201
log2c=11 log2g=-1 rate=62.5483
log2c=5 log2g=-13 rate=64.0927
log2c=-1 log2g=-13 rate=64.0927
log2c=11 log2g=-13 rate=76.0618
log2c=-3 log2g=-7 rate=64.0927
log2c=-3 log2g=-1 rate=65.8301
log2c=-3 log2g=-13 rate=64.0927
log2c=5 log2g=1 rate=60.2317
log2c=-1 log2g=1 rate=64.6718
log2c=11 log2g=1 rate=59.2664
log2c=-3 log2g=1 rate=65.251
log2c=9 log2g=-7 rate=76.6409
log2c=9 log2g=-1 rate=61.7761
log2c=9 log2g=-13 rate=74.3243
log2c=9 log2g=1 rate=59.2664
log2c=5 log2g=-11 rate=64.0927
log2c=-1 log2g=-11 rate=64.0927
log2c=11 log2g=-11 rate=77.027
log2c=-3 log2g=-11 rate=64.0927
log2c=9 log2g=-11 rate=76.0618
log2c=3 log2g=-7 rate=74.3243
log2c=3 log2g=-1 rate=61.9691
log2c=3 log2g=-13 rate=64.0927
log2c=3 log2g=1 rate=60.4247
log2c=3 log2g=-11 rate=64.0927
log2c=5 log2g=-5 rate=77.2201
log2c=-1 log2g=-5 rate=64.0927
log2c=11 log2g=-5 rate=72.973
log2c=-3 log2g=-5 rate=64.0927
log2c=9 log2g=-5 rate=76.834
log2c=3 log2g=-5 rate=76.0618
log2c=15 log2g=-7 rate=76.834
log2c=15 log2g=-1 rate=62.1622
log2c=15 log2g=-13 rate=76.834
log2c=15 log2g=1 rate=59.2664
log2c=15 log2g=-11 rate=77.027
log2c=15 log2g=-5 rate=67.3745
log2c=5 log2g=-15 rate=64.0927
log2c=-1 log2g=-15 rate=64.0927
log2c=11 log2g=-15 rate=74.3243
log2c=-3 log2g=-15 rate=64.0927
log2c=9 log2g=-15 rate=64.0927
log2c=3 log2g=-15 rate=64.0927
log2c=15 log2g=-15 rate=77.027
log2c=-5 log2g=-7 rate=64.0927
log2c=-5 log2g=-1 rate=64.0927
log2c=-5 log2g=-13 rate=64.0927
log2c=-5 log2g=1 rate=64.4788
log2c=-5 log2g=-11 rate=64.0927
log2c=-5 log2g=-5 rate=64.0927
log2c=-5 log2g=-15 rate=64.0927
log2c=5 log2g=3 rate=60.2317
log2c=-1 log2g=3 rate=65.0579
log2c=11 log2g=3 rate=53.668
log2c=-3 log2g=3 rate=65.0579
log2c=9 log2g=3 rate=54.4402
log2c=3 log2g=3 rate=61.1969
log2c=15 log2g=3 rate=54.6332
log2c=-5 log2g=3 rate=64.0927
log2c=7 log2g=-7 rate=77.027
log2c=7 log2g=-1 rate=61.39
log2c=7 log2g=-13 rate=64.0927
log2c=7 log2g=1 rate=59.6525
log2c=7 log2g=-11 rate=74.3243
log2c=7 log2g=-5 rate=76.834
log2c=7 log2g=-15 rate=64.0927
log2c=7 log2g=3 rate=56.9498
log2c=5 log2g=-9 rate=74.3243
log2c=-1 log2g=-9 rate=64.0927
log2c=11 log2g=-9 rate=76.834
log2c=-3 log2g=-9 rate=64.0927
log2c=9 log2g=-9 rate=77.027
log2c=3 log2g=-9 rate=64.0927
log2c=15 log2g=-9 rate=77.2201
log2c=-5 log2g=-9 rate=64.0927
log2c=7 log2g=-9 rate=76.0618
log2c=1 log2g=-7 rate=64.0927
log2c=1 log2g=-1 rate=63.1274
log2c=1 log2g=-13 rate=64.0927
log2c=1 log2g=1 rate=60.0386
log2c=1 log2g=-11 rate=64.0927
log2c=1 log2g=-5 rate=74.3243
log2c=1 log2g=-15 rate=64.0927
log2c=1 log2g=3 rate=62.1622
log2c=1 log2g=-9 rate=64.0927
log2c=5 log2g=-3 rate=71.2355
log2c=-1 log2g=-3 rate=72.5869
log2c=11 log2g=-3 rate=67.3745
log2c=-3 log2g=-3 rate=64.0927
log2c=9 log2g=-3 rate=67.7606
log2c=3 log2g=-3 rate=76.2548
log2c=15 log2g=-3 rate=67.1815
log2c=-5 log2g=-3 rate=64.0927
log2c=7 log2g=-3 rate=69.4981
log2c=1 log2g=-3 rate=76.0618
log2c=13 log2g=-7 rate=77.027
log2c=13 log2g=-1 rate=62.5483
log2c=13 log2g=-13 rate=77.027
log2c=13 log2g=1 rate=59.2664
log2c=13 log2g=-11 rate=76.834
log2c=13 log2g=-5 rate=67.9537
log2c=13 log2g=-15 rate=76.0618
log2c=13 log2g=3 rate=54.6332
log2c=13 log2g=-9 rate=77.027
log2c=13 log2g=-3 rate=67.1815
