log2c=5 log2g=-7 rate=75.2896
log2c=-1 log2g=-7 rate=64.4788
log2c=5 log2g=-1 rate=81.0811
log2c=-1 log2g=-1 rate=76.834
log2c=11 log2g=-7 rate=75.8687
log2c=11 log2g=-1 rate=83.9768
log2c=5 log2g=-13 rate=64.4788
log2c=-1 log2g=-13 rate=64.4788
log2c=11 log2g=-13 rate=74.9035
log2c=-3 log2g=-7 rate=64.4788
log2c=-3 log2g=-1 rate=74.1313
log2c=-3 log2g=-13 rate=64.4788
log2c=5 log2g=1 rate=85.5212
log2c=-1 log2g=1 rate=78.1853
log2c=11 log2g=1 rate=85.1351
log2c=-3 log2g=1 rate=72.7799
log2c=9 log2g=-7 rate=76.0618
log2c=9 log2g=-1 rate=83.9768
log2c=9 log2g=-13 rate=75.0965
log2c=9 log2g=1 rate=85.1351
log2c=5 log2g=-11 rate=66.9884
log2c=-1 log2g=-11 rate=64.4788
log2c=11 log2g=-11 rate=75.2896
log2c=-3 log2g=-11 rate=64.4788
log2c=9 log2g=-11 rate=74.9035
log2c=3 log2g=-7 rate=74.9035
log2c=3 log2g=-1 rate=79.5367
log2c=3 log2g=-13 rate=64.4788
log2c=3 log2g=1 rate=85.1351
log2c=3 log2g=-11 rate=64.4788
log2c=5 log2g=-5 rate=76.4479
log2c=-1 log2g=-5 rate=65.8301
log2c=11 log2g=-5 rate=75.4826
log2c=-3 log2g=-5 rate=64.4788
log2c=9 log2g=-5 rate=76.2548
log2c=3 log2g=-5 rate=74.9035
log2c=15 log2g=-7 rate=76.2548
log2c=15 log2g=-1 rate=84.1699
log2c=15 log2g=-13 rate=75.2896
log2c=15 log2g=1 rate=85.1351
log2c=15 log2g=-11 rate=75.8687
log2c=15 log2g=-5 rate=80.888
log2c=5 log2g=-15 rate=64.4788
log2c=-1 log2g=-15 rate=64.4788
log2c=11 log2g=-15 rate=75.0965
log2c=-3 log2g=-15 rate=64.4788
log2c=9 log2g=-15 rate=66.9884
log2c=3 log2g=-15 rate=64.4788
log2c=15 log2g=-15 rate=75.4826
log2c=-5 log2g=-7 rate=64.4788
log2c=-5 log2g=-1 rate=64.4788
log2c=-5 log2g=-13 rate=64.4788
log2c=-5 log2g=1 rate=64.4788
log2c=-5 log2g=-11 rate=64.4788
log2c=-5 log2g=-5 rate=64.4788
log2c=-5 log2g=-15 rate=64.4788
log2c=5 log2g=3 rate=85.7143
log2c=-1 log2g=3 rate=82.8185
log2c=11 log2g=3 rate=85.7143
log2c=-3 log2g=3 rate=64.4788
log2c=9 log2g=3 rate=85.7143
log2c=3 log2g=3 rate=85.9073
log2c=15 log2g=3 rate=85.7143
log2c=-5 log2g=3 rate=64.4788
log2c=7 log2g=-7 rate=75.6757
log2c=7 log2g=-1 rate=81.2741
log2c=7 log2g=-13 rate=66.9884
log2c=7 log2g=1 rate=84.9421
log2c=7 log2g=-11 rate=75.0965
log2c=7 log2g=-5 rate=76.2548
log2c=7 log2g=-15 rate=64.4788
log2c=7 log2g=3 rate=85.7143
log2c=5 log2g=-9 rate=74.9035
log2c=-1 log2g=-9 rate=64.4788
log2c=11 log2g=-9 rate=75.4826
log2c=-3 log2g=-9 rate=64.4788
log2c=9 log2g=-9 rate=75.6757
log2c=3 log2g=-9 rate=66.9884
log2c=15 log2g=-9 rate=76.0618
log2c=-5 log2g=-9 rate=64.4788
log2c=7 log2g=-9 rate=75.0965
log2c=1 log2g=-7 rate=66.9884
log2c=1 log2g=-1 rate=77.6062
log2c=1 log2g=-13 rate=64.4788
log2c=1 log2g=1 rate=81.8533
log2c=1 log2g=-11 rate=64.4788
log2c=1 log2g=-5 rate=75.0965
log2c=1 log2g=-15 rate=64.4788
log2c=1 log2g=3 rate=86.4865
log2c=1 log2g=-9 rate=64.4788
log2c=5 log2g=-3 rate=76.834
log2c=-1 log2g=-3 rate=74.7104
log2c=11 log2g=-3 rate=80.1158
log2c=-3 log2g=-3 rate=64.4788
log2c=9 log2g=-3 rate=80.888
log2c=3 log2g=-3 rate=76.0618
log2c=15 log2g=-3 rate=82.4324
log2c=-5 log2g=-3 rate=64.4788
log2c=7 log2g=-3 rate=76.834
log2c=1 log2g=-3 rate=75.4826
log2c=13 log2g=-7 rate=76.2548
log2c=13 log2g=-1 rate=84.1699
log2c=13 log2g=-13 rate=75.6757
log2c=13 log2g=1 rate=85.1351
log2c=13 log2g=-11 rate=75.2896
log2c=13 log2g=-5 rate=80.5019
log2c=13 log2g=-15 rate=74.9035
log2c=13 log2g=3 rate=85.7143
log2c=13 log2g=-9 rate=76.0618
log2c=13 log2g=-3 rate=80.1158
