+1  1:2.000000 2:92.000000 3:76.000000 4:20.000000 5:0.000000 6:24.200001 7:1.698000 8:28.000000
+1  1:1.000000 2:92.000000 3:62.000000 4:25.000000 5:41.000000 6:19.500000 7:0.482000 8:25.000000
+1  1:4.000000 2:127.000000 3:88.000000 4:11.000000 5:155.000000 6:34.500000 7:0.598000 8:28.000000
+1  1:6.000000 2:129.000000 3:90.000000 4:7.000000 5:326.000000 6:19.600000 7:0.582000 8:60.000000
+1  1:1.000000 2:139.000000 3:46.000000 4:19.000000 5:83.000000 6:28.700001 7:0.654000 8:22.000000
+1  1:0.000000 2:104.000000 3:76.000000 4:0.000000 5:0.000000 6:18.400000 7:0.582000 8:27.000000
+1  1:1.000000 2:92.000000 3:62.000000 4:25.000000 5:41.000000 6:19.500000 7:0.482000 8:25.000000
-1  1:2.000000 2:102.000000 3:86.000000 4:36.000000 5:120.000000 6:45.500000 7:0.127000 8:23.000000
+1  1:7.000000 2:81.000000 3:78.000000 4:40.000000 5:48.000000 6:46.700001 7:0.261000 8:42.000000
+1  1:2.000000 2:112.000000 3:66.000000 4:22.000000 5:0.000000 6:25.000000 7:0.307000 8:24.000000
+1  1:6.000000 2:107.000000 3:88.000000 4:0.000000 5:0.000000 6:36.799999 7:0.727000 8:31.000000
+1  1:2.000000 2:130.000000 3:96.000000 4:0.000000 5:0.000000 6:22.600000 7:0.268000 8:21.000000
+1  1:3.000000 2:124.000000 3:80.000000 4:33.000000 5:130.000000 6:33.200001 7:0.305000 8:26.000000
+1  1:7.000000 2:136.000000 3:90.000000 4:0.000000 5:0.000000 6:29.900000 7:0.210000 8:50.000000
+1  1:3.000000 2:125.000000 3:58.000000 4:0.000000 5:0.000000 6:31.600000 7:0.151000 8:24.000000
+1  1:2.000000 2:107.000000 3:74.000000 4:30.000000 5:100.000000 6:33.599998 7:0.404000 8:23.000000
+1  1:1.000000 2:97.000000 3:70.000000 4:40.000000 5:0.000000 6:38.099998 7:0.218000 8:30.000000
+1  1:4.000000 2:112.000000 3:78.000000 4:40.000000 5:0.000000 6:39.400002 7:0.236000 8:38.000000
+1  1:3.000000 2:102.000000 3:74.000000 4:0.000000 5:0.000000 6:29.500000 7:0.121000 8:32.000000
+1  1:1.000000 2:90.000000 3:62.000000 4:18.000000 5:59.000000 6:25.100000 7:1.268000 8:25.000000
-1  1:1.000000 2:181.000000 3:78.000000 4:42.000000 5:293.000000 6:40.000000 7:1.258000 8:22.000000
+1  1:0.000000 2:106.000000 3:70.000000 4:37.000000 5:148.000000 6:39.400002 7:0.605000 8:22.000000
-1  1:1.000000 2:113.000000 3:64.000000 4:35.000000 5:0.000000 6:33.599998 7:0.543000 8:21.000000
+1  1:3.000000 2:148.000000 3:66.000000 4:25.000000 5:0.000000 6:32.500000 7:0.256000 8:22.000000
+1  1:8.000000 2:99.000000 3:84.000000 4:0.000000 5:0.000000 6:35.400002 7:0.388000 8:50.000000
+1  1:0.000000 2:127.000000 3:80.000000 4:37.000000 5:210.000000 6:36.299999 7:0.804000 8:23.000000
-1  1:9.000000 2:122.000000 3:56.000000 4:0.000000 5:0.000000 6:33.299999 7:1.114000 8:33.000000
+1  1:6.000000 2:103.000000 3:72.000000 4:32.000000 5:190.000000 6:37.700001 7:0.324000 8:55.000000
+1  1:0.000000 2:129.000000 3:80.000000 4:0.000000 5:0.000000 6:31.200001 7:0.703000 8:29.000000
+1  1:1.000000 2:88.000000 3:62.000000 4:24.000000 5:44.000000 6:29.900000 7:0.422000 8:23.000000
+1  1:0.000000 2:101.000000 3:76.000000 4:0.000000 5:0.000000 6:35.700001 7:0.198000 8:26.000000
-1  1:6.000000 2:148.000000 3:72.000000 4:35.000000 5:0.000000 6:33.599998 7:0.627000 8:50.000000
+1  1:8.000000 2:120.000000 3:78.000000 4:0.000000 5:0.000000 6:25.000000 7:0.409000 8:64.000000
-1  1:9.000000 2:112.000000 3:82.000000 4:24.000000 5:0.000000 6:28.200001 7:1.282000 8:50.000000
-1  1:8.000000 2:196.000000 3:76.000000 4:29.000000 5:280.000000 6:37.500000 7:0.605000 8:57.000000
+1  1:0.000000 2:161.000000 3:50.000000 4:0.000000 5:0.000000 6:21.900000 7:0.254000 8:65.000000
+1  1:2.000000 2:88.000000 3:74.000000 4:19.000000 5:53.000000 6:29.000000 7:0.229000 8:22.000000
+1  1:0.000000 2:106.000000 3:70.000000 4:37.000000 5:148.000000 6:39.400002 7:0.605000 8:22.000000
+1  1:2.000000 2:175.000000 3:88.000000 4:0.000000 5:0.000000 6:22.900000 7:0.326000 8:22.000000
+1  1:1.000000 2:86.000000 3:66.000000 4:52.000000 5:65.000000 6:41.299999 7:0.917000 8:29.000000
+1  1:1.000000 2:95.000000 3:74.000000 4:21.000000 5:73.000000 6:25.900000 7:0.673000 8:36.000000
-1  1:0.000000 2:180.000000 3:66.000000 4:39.000000 5:0.000000 6:42.000000 7:1.893000 8:25.000000
-1  1:8.000000 2:125.000000 3:96.000000 4:0.000000 5:0.000000 6:0.000000 7:0.232000 8:54.000000
+1  1:2.000000 2:83.000000 3:65.000000 4:28.000000 5:66.000000 6:36.799999 7:0.629000 8:24.000000
+1  1:1.000000 2:108.000000 3:60.000000 4:46.000000 5:178.000000 6:35.500000 7:0.415000 8:24.000000
+1  1:5.000000 2:121.000000 3:72.000000 4:23.000000 5:112.000000 6:26.200001 7:0.245000 8:30.000000
-1  1:9.000000 2:130.000000 3:70.000000 4:0.000000 5:0.000000 6:34.200001 7:0.652000 8:45.000000
-1  1:0.000000 2:162.000000 3:76.000000 4:56.000000 5:100.000000 6:53.200001 7:0.759000 8:25.000000
-1  1:10.000000 2:108.000000 3:66.000000 4:0.000000 5:0.000000 6:32.400002 7:0.272000 8:42.000000
-1  1:9.000000 2:170.000000 3:74.000000 4:31.000000 5:0.000000 6:44.000000 7:0.403000 8:43.000000
+1  1:6.000000 2:92.000000 3:92.000000 4:0.000000 5:0.000000 6:19.900000 7:0.188000 8:28.000000
+1  1:1.000000 2:126.000000 3:56.000000 4:29.000000 5:152.000000 6:28.700001 7:0.801000 8:21.000000
+1  1:7.000000 2:106.000000 3:92.000000 4:18.000000 5:0.000000 6:22.700001 7:0.235000 8:48.000000
+1  1:1.000000 2:128.000000 3:82.000000 4:17.000000 5:183.000000 6:27.500000 7:0.115000 8:22.000000
+1  1:1.000000 2:92.000000 3:62.000000 4:25.000000 5:41.000000 6:19.500000 7:0.482000 8:25.000000
+1  1:2.000000 2:123.000000 3:48.000000 4:32.000000 5:165.000000 6:42.099998 7:0.520000 8:26.000000
-1  1:8.000000 2:154.000000 3:78.000000 4:32.000000 5:0.000000 6:32.400002 7:0.443000 8:45.000000
+1  1:4.000000 2:103.000000 3:60.000000 4:33.000000 5:192.000000 6:24.000000 7:0.966000 8:33.000000
+1  1:2.000000 2:141.000000 3:58.000000 4:34.000000 5:128.000000 6:25.400000 7:0.699000 8:24.000000
-1  1:5.000000 2:116.000000 3:74.000000 4:29.000000 5:0.000000 6:32.299999 7:0.660000 8:35.000000
+1  1:8.000000 2:99.000000 3:84.000000 4:0.000000 5:0.000000 6:35.400002 7:0.388000 8:50.000000
-1  1:9.000000 2:171.000000 3:110.000000 4:24.000000 5:240.000000 6:45.400002 7:0.721000 8:54.000000
+1  1:10.000000 2:133.000000 3:68.000000 4:0.000000 5:0.000000 6:27.000000 7:0.245000 8:36.000000
+1  1:4.000000 2:127.000000 3:88.000000 4:11.000000 5:155.000000 6:34.500000 7:0.598000 8:28.000000
-1  1:7.000000 2:97.000000 3:76.000000 4:32.000000 5:91.000000 6:40.900002 7:0.871000 8:32.000000
-1  1:9.000000 2:165.000000 3:88.000000 4:0.000000 5:0.000000 6:30.400000 7:0.302000 8:49.000000
+1  1:12.000000 2:100.000000 3:84.000000 4:33.000000 5:105.000000 6:30.000000 7:0.488000 8:46.000000
+1  1:2.000000 2:91.000000 3:62.000000 4:0.000000 5:0.000000 6:27.299999 7:0.525000 8:22.000000
-1  1:1.000000 2:180.000000 3:0.000000 4:0.000000 5:0.000000 6:43.299999 7:0.282000 8:41.000000
+1  1:5.000000 2:117.000000 3:92.000000 4:0.000000 5:0.000000 6:34.099998 7:0.337000 8:38.000000
+1  1:0.000000 2:125.000000 3:96.000000 4:0.000000 5:0.000000 6:22.500000 7:0.262000 8:21.000000
+1  1:0.000000 2:119.000000 3:64.000000 4:18.000000 5:92.000000 6:34.900002 7:0.725000 8:23.000000
-1  1:5.000000 2:0.000000 3:80.000000 4:32.000000 5:0.000000 6:41.000000 7:0.346000 8:37.000000
-1  1:13.000000 2:152.000000 3:90.000000 4:33.000000 5:29.000000 6:26.799999 7:0.731000 8:43.000000
-1  1:3.000000 2:173.000000 3:84.000000 4:33.000000 5:474.000000 6:35.700001 7:0.258000 8:22.000000
-1  1:0.000000 2:167.000000 3:0.000000 4:0.000000 5:0.000000 6:32.299999 7:0.839000 8:30.000000
+1  1:5.000000 2:88.000000 3:66.000000 4:21.000000 5:23.000000 6:24.400000 7:0.342000 8:30.000000
-1  1:9.000000 2:164.000000 3:78.000000 4:0.000000 5:0.000000 6:32.799999 7:0.148000 8:45.000000
+1  1:0.000000 2:104.000000 3:64.000000 4:23.000000 5:116.000000 6:27.799999 7:0.454000 8:23.000000
+1  1:4.000000 2:99.000000 3:76.000000 4:15.000000 5:51.000000 6:23.200001 7:0.223000 8:21.000000
-1  1:5.000000 2:124.000000 3:74.000000 4:0.000000 5:0.000000 6:34.000000 7:0.220000 8:38.000000
+1  1:0.000000 2:129.000000 3:80.000000 4:0.000000 5:0.000000 6:31.200001 7:0.703000 8:29.000000
-1  1:6.000000 2:147.000000 3:80.000000 4:0.000000 5:0.000000 6:29.500000 7:0.178000 8:50.000000
+1  1:3.000000 2:142.000000 3:80.000000 4:15.000000 5:0.000000 6:32.400002 7:0.200000 8:63.000000
+1  1:11.000000 2:127.000000 3:106.000000 4:0.000000 5:0.000000 6:39.000000 7:0.190000 8:51.000000
-1  1:6.000000 2:148.000000 3:72.000000 4:35.000000 5:0.000000 6:33.599998 7:0.627000 8:50.000000
+1  1:3.000000 2:80.000000 3:0.000000 4:0.000000 5:0.000000 6:0.000000 7:0.174000 8:22.000000
+1  1:2.000000 2:119.000000 3:0.000000 4:0.000000 5:0.000000 6:19.600000 7:0.832000 8:72.000000
+1  1:3.000000 2:100.000000 3:68.000000 4:23.000000 5:81.000000 6:31.600000 7:0.949000 8:28.000000
+1  1:0.000000 2:139.000000 3:62.000000 4:17.000000 5:210.000000 6:22.100000 7:0.207000 8:21.000000
+1  1:5.000000 2:116.000000 3:74.000000 4:0.000000 5:0.000000 6:25.600000 7:0.201000 8:30.000000
+1  1:5.000000 2:128.000000 3:80.000000 4:0.000000 5:0.000000 6:34.599998 7:0.144000 8:45.000000
+1  1:1.000000 2:71.000000 3:48.000000 4:18.000000 5:76.000000 6:20.400000 7:0.323000 8:22.000000
-1  1:11.000000 2:138.000000 3:74.000000 4:26.000000 5:144.000000 6:36.099998 7:0.557000 8:50.000000
+1  1:0.000000 2:105.000000 3:68.000000 4:22.000000 5:0.000000 6:20.000000 7:0.236000 8:22.000000
+1  1:5.000000 2:77.000000 3:82.000000 4:41.000000 5:42.000000 6:35.799999 7:0.156000 8:35.000000
-1  1:0.000000 2:181.000000 3:88.000000 4:44.000000 5:510.000000 6:43.299999 7:0.222000 8:26.000000
+1  1:4.000000 2:131.000000 3:68.000000 4:21.000000 5:166.000000 6:33.099998 7:0.160000 8:28.000000
+1  1:5.000000 2:114.000000 3:74.000000 4:0.000000 5:0.000000 6:24.900000 7:0.744000 8:57.000000
+1  1:0.000000 2:74.000000 3:52.000000 4:10.000000 5:36.000000 6:27.799999 7:0.269000 8:22.000000
+1  1:2.000000 2:87.000000 3:0.000000 4:23.000000 5:0.000000 6:28.900000 7:0.773000 8:25.000000
+1  1:0.000000 2:74.000000 3:52.000000 4:10.000000 5:36.000000 6:27.799999 7:0.269000 8:22.000000
+1  1:0.000000 2:102.000000 3:78.000000 4:40.000000 5:90.000000 6:34.500000 7:0.238000 8:24.000000
-1  1:0.000000 2:146.000000 3:70.000000 4:0.000000 5:0.000000 6:37.900002 7:0.334000 8:28.000000
-1  1:9.000000 2:165.000000 3:88.000000 4:0.000000 5:0.000000 6:30.400000 7:0.302000 8:49.000000
+1  1:2.000000 2:56.000000 3:56.000000 4:28.000000 5:45.000000 6:24.200001 7:0.332000 8:22.000000
+1  1:2.000000 2:81.000000 3:72.000000 4:15.000000 5:76.000000 6:30.100000 7:0.547000 8:25.000000
+1  1:2.000000 2:89.000000 3:90.000000 4:30.000000 5:0.000000 6:33.500000 7:0.292000 8:42.000000
-1  1:0.000000 2:162.000000 3:76.000000 4:56.000000 5:100.000000 6:53.200001 7:0.759000 8:25.000000
-1  1:2.000000 2:93.000000 3:64.000000 4:32.000000 5:160.000000 6:38.000000 7:0.674000 8:23.000000
+1  1:3.000000 2:96.000000 3:56.000000 4:34.000000 5:115.000000 6:24.700001 7:0.944000 8:39.000000
-1  1:3.000000 2:121.000000 3:52.000000 4:0.000000 5:0.000000 6:36.000000 7:0.127000 8:25.000000
-1  1:5.000000 2:0.000000 3:80.000000 4:32.000000 5:0.000000 6:41.000000 7:0.346000 8:37.000000
-1  1:9.000000 2:112.000000 3:82.000000 4:32.000000 5:175.000000 6:34.200001 7:0.260000 8:36.000000
-1  1:10.000000 2:111.000000 3:70.000000 4:27.000000 5:0.000000 6:27.500000 7:0.141000 8:40.000000
+1  1:3.000000 2:83.000000 3:58.000000 4:31.000000 5:18.000000 6:34.299999 7:0.336000 8:25.000000
+1  1:7.000000 2:106.000000 3:92.000000 4:18.000000 5:0.000000 6:22.700001 7:0.235000 8:48.000000
-1  1:9.000000 2:140.000000 3:94.000000 4:0.000000 5:0.000000 6:32.700001 7:0.734000 8:45.000000
+1  1:8.000000 2:194.000000 3:80.000000 4:0.000000 5:0.000000 6:26.100000 7:0.551000 8:67.000000
+1  1:4.000000 2:112.000000 3:78.000000 4:40.000000 5:0.000000 6:39.400002 7:0.236000 8:38.000000
-1  1:8.000000 2:133.000000 3:72.000000 4:0.000000 5:0.000000 6:32.900002 7:0.270000 8:39.000000
-1  1:4.000000 2:171.000000 3:72.000000 4:0.000000 5:0.000000 6:43.599998 7:0.479000 8:26.000000
+1  1:3.000000 2:122.000000 3:78.000000 4:0.000000 5:0.000000 6:23.000000 7:0.254000 8:40.000000
+1  1:1.000000 2:109.000000 3:58.000000 4:18.000000 5:116.000000 6:28.500000 7:0.219000 8:22.000000
+1  1:8.000000 2:126.000000 3:74.000000 4:38.000000 5:75.000000 6:25.900000 7:0.162000 8:39.000000
-1  1:1.000000 2:113.000000 3:64.000000 4:35.000000 5:0.000000 6:33.599998 7:0.543000 8:21.000000
+1  1:5.000000 2:77.000000 3:82.000000 4:41.000000 5:42.000000 6:35.799999 7:0.156000 8:35.000000
+1  1:1.000000 2:90.000000 3:62.000000 4:18.000000 5:59.000000 6:25.100000 7:1.268000 8:25.000000
+1  1:3.000000 2:113.000000 3:44.000000 4:13.000000 5:0.000000 6:22.400000 7:0.140000 8:22.000000
+1  1:3.000000 2:111.000000 3:58.000000 4:31.000000 5:44.000000 6:29.500000 7:0.430000 8:22.000000
-1  1:0.000000 2:131.000000 3:0.000000 4:0.000000 5:0.000000 6:43.200001 7:0.270000 8:26.000000
+1  1:2.000000 2:89.000000 3:90.000000 4:30.000000 5:0.000000 6:33.500000 7:0.292000 8:42.000000
+1  1:1.000000 2:109.000000 3:58.000000 4:18.000000 5:116.000000 6:28.500000 7:0.219000 8:22.000000
+1  1:1.000000 2:99.000000 3:72.000000 4:30.000000 5:18.000000 6:38.599998 7:0.412000 8:21.000000
+1  1:6.000000 2:123.000000 3:72.000000 4:45.000000 5:230.000000 6:33.599998 7:0.733000 8:34.000000
+1  1:8.000000 2:194.000000 3:80.000000 4:0.000000 5:0.000000 6:26.100000 7:0.551000 8:67.000000
+1  1:3.000000 2:61.000000 3:82.000000 4:28.000000 5:0.000000 6:34.400002 7:0.243000 8:46.000000
-1  1:5.000000 2:144.000000 3:82.000000 4:26.000000 5:285.000000 6:32.000000 7:0.452000 8:58.000000
-1  1:6.000000 2:125.000000 3:76.000000 4:0.000000 5:0.000000 6:33.799999 7:0.121000 8:54.000000
+1  1:4.000000 2:76.000000 3:62.000000 4:0.000000 5:0.000000 6:34.000000 7:0.391000 8:25.000000
+1  1:4.000000 2:146.000000 3:85.000000 4:27.000000 5:100.000000 6:28.900000 7:0.189000 8:27.000000
+1  1:10.000000 2:122.000000 3:78.000000 4:31.000000 5:0.000000 6:27.600000 7:0.512000 8:45.000000
+1  1:6.000000 2:103.000000 3:72.000000 4:32.000000 5:190.000000 6:37.700001 7:0.324000 8:55.000000
-1  1:8.000000 2:197.000000 3:74.000000 4:0.000000 5:0.000000 6:25.900000 7:1.191000 8:39.000000
-1  1:5.000000 2:124.000000 3:74.000000 4:0.000000 5:0.000000 6:34.000000 7:0.220000 8:38.000000
+1  1:1.000000 2:107.000000 3:50.000000 4:19.000000 5:0.000000 6:28.299999 7:0.181000 8:29.000000
+1  1:2.000000 2:141.000000 3:58.000000 4:34.000000 5:128.000000 6:25.400000 7:0.699000 8:24.000000
+1  1:3.000000 2:83.000000 3:58.000000 4:31.000000 5:18.000000 6:34.299999 7:0.336000 8:25.000000
+1  1:1.000000 2:126.000000 3:56.000000 4:29.000000 5:152.000000 6:28.700001 7:0.801000 8:21.000000
+1  1:9.000000 2:89.000000 3:62.000000 4:0.000000 5:0.000000 6:22.500000 7:0.142000 8:33.000000
+1  1:1.000000 2:84.000000 3:64.000000 4:23.000000 5:115.000000 6:36.900002 7:0.471000 8:28.000000
+1  1:0.000000 2:152.000000 3:82.000000 4:39.000000 5:272.000000 6:41.500000 7:0.270000 8:27.000000
+1  1:2.000000 2:120.000000 3:76.000000 4:37.000000 5:105.000000 6:39.700001 7:0.215000 8:29.000000
-1  1:8.000000 2:125.000000 3:96.000000 4:0.000000 5:0.000000 6:0.000000 7:0.232000 8:54.000000
-1  1:10.000000 2:111.000000 3:70.000000 4:27.000000 5:0.000000 6:27.500000 7:0.141000 8:40.000000
+1  1:4.000000 2:85.000000 3:58.000000 4:22.000000 5:49.000000 6:27.799999 7:0.306000 8:28.000000
+1  1:0.000000 2:123.000000 3:88.000000 4:37.000000 5:0.000000 6:35.200001 7:0.197000 8:29.000000
-1  1:5.000000 2:162.000000 3:104.000000 4:0.000000 5:0.000000 6:37.700001 7:0.151000 8:52.000000
-1  1:6.000000 2:104.000000 3:74.000000 4:18.000000 5:156.000000 6:29.900000 7:0.722000 8:41.000000
+1  1:2.000000 2:105.000000 3:58.000000 4:40.000000 5:94.000000 6:34.900002 7:0.225000 8:25.000000
+1  1:0.000000 2:67.000000 3:76.000000 4:0.000000 5:0.000000 6:45.299999 7:0.194000 8:46.000000
+1  1:2.000000 2:122.000000 3:70.000000 4:27.000000 5:0.000000 6:36.799999 7:0.340000 8:27.000000
+1  1:2.000000 2:84.000000 3:50.000000 4:23.000000 5:76.000000 6:30.400000 7:0.968000 8:21.000000
-1  1:4.000000 2:125.000000 3:80.000000 4:0.000000 5:0.000000 6:32.299999 7:0.536000 8:27.000000
+1  1:0.000000 2:104.000000 3:76.000000 4:0.000000 5:0.000000 6:18.400000 7:0.582000 8:27.000000
-1  1:6.000000 2:125.000000 3:78.000000 4:31.000000 5:0.000000 6:27.600000 7:0.565000 8:49.000000
+1  1:0.000000 2:137.000000 3:70.000000 4:38.000000 5:0.000000 6:33.200001 7:0.170000 8:22.000000
-1  1:2.000000 2:134.000000 3:70.000000 4:0.000000 5:0.000000 6:28.900000 7:0.542000 8:23.000000
+1  1:0.000000 2:137.000000 3:70.000000 4:38.000000 5:0.000000 6:33.200001 7:0.170000 8:22.000000
-1  1:0.000000 2:109.000000 3:88.000000 4:30.000000 5:0.000000 6:32.500000 7:0.855000 8:38.000000
+1  1:2.000000 2:74.000000 3:0.000000 4:0.000000 5:0.000000 6:0.000000 7:0.102000 8:22.000000
+1  1:5.000000 2:139.000000 3:64.000000 4:35.000000 5:140.000000 6:28.600000 7:0.411000 8:26.000000
+1  1:4.000000 2:146.000000 3:85.000000 4:27.000000 5:100.000000 6:28.900000 7:0.189000 8:27.000000
-1  1:1.000000 2:126.000000 3:60.000000 4:0.000000 5:0.000000 6:30.100000 7:0.349000 8:47.000000
+1  1:2.000000 2:117.000000 3:90.000000 4:19.000000 5:71.000000 6:25.200001 7:0.313000 8:21.000000
-1  1:2.000000 2:102.000000 3:86.000000 4:36.000000 5:120.000000 6:45.500000 7:0.127000 8:23.000000
+1  1:0.000000 2:141.000000 3:84.000000 4:26.000000 5:0.000000 6:32.400002 7:0.433000 8:22.000000
+1  1:1.000000 2:88.000000 3:78.000000 4:29.000000 5:76.000000 6:32.000000 7:0.365000 8:29.000000
+1  1:5.000000 2:143.000000 3:78.000000 4:0.000000 5:0.000000 6:45.000000 7:0.190000 8:47.000000
-1  1:7.000000 2:196.000000 3:90.000000 4:0.000000 5:0.000000 6:39.799999 7:0.451000 8:41.000000
+1  1:6.000000 2:98.000000 3:58.000000 4:33.000000 5:190.000000 6:34.000000 7:0.430000 8:43.000000
+1  1:0.000000 2:137.000000 3:70.000000 4:38.000000 5:0.000000 6:33.200001 7:0.170000 8:22.000000
+1  1:0.000000 2:73.000000 3:0.000000 4:0.000000 5:0.000000 6:21.100000 7:0.342000 8:25.000000
+1  1:1.000000 2:88.000000 3:78.000000 4:29.000000 5:76.000000 6:32.000000 7:0.365000 8:29.000000
-1  1:3.000000 2:174.000000 3:58.000000 4:22.000000 5:194.000000 6:32.900002 7:0.593000 8:36.000000
-1  1:8.000000 2:183.000000 3:64.000000 4:0.000000 5:0.000000 6:23.299999 7:0.672000 8:32.000000
-1  1:5.000000 2:116.000000 3:74.000000 4:29.000000 5:0.000000 6:32.299999 7:0.660000 8:35.000000
+1  1:2.000000 2:87.000000 3:58.000000 4:16.000000 5:52.000000 6:32.700001 7:0.166000 8:25.000000
+1  1:6.000000 2:102.000000 3:90.000000 4:39.000000 5:0.000000 6:35.700001 7:0.674000 8:28.000000
+1  1:1.000000 2:97.000000 3:70.000000 4:15.000000 5:0.000000 6:18.200001 7:0.147000 8:21.000000
-1  1:8.000000 2:151.000000 3:78.000000 4:32.000000 5:210.000000 6:42.900002 7:0.516000 8:36.000000
+1  1:3.000000 2:80.000000 3:0.000000 4:0.000000 5:0.000000 6:0.000000 7:0.174000 8:22.000000
+1  1:4.000000 2:110.000000 3:76.000000 4:20.000000 5:100.000000 6:28.400000 7:0.118000 8:27.000000
+1  1:0.000000 2:107.000000 3:76.000000 4:0.000000 5:0.000000 6:45.299999 7:0.686000 8:24.000000
-1  1:7.000000 2:129.000000 3:68.000000 4:49.000000 5:125.000000 6:38.500000 7:0.439000 8:43.000000
-1  1:11.000000 2:138.000000 3:74.000000 4:26.000000 5:144.000000 6:36.099998 7:0.557000 8:50.000000
-1  1:3.000000 2:129.000000 3:92.000000 4:49.000000 5:155.000000 6:36.400002 7:0.968000 8:32.000000
+1  1:0.000000 2:102.000000 3:75.000000 4:23.000000 5:0.000000 6:0.000000 7:0.572000 8:21.000000
+1  1:4.000000 2:127.000000 3:88.000000 4:11.000000 5:155.000000 6:34.500000 7:0.598000 8:28.000000
+1  1:10.000000 2:101.000000 3:76.000000 4:48.000000 5:180.000000 6:32.900002 7:0.171000 8:63.000000
+1  1:3.000000 2:82.000000 3:70.000000 4:0.000000 5:0.000000 6:21.100000 7:0.389000 8:25.000000
+1  1:5.000000 2:103.000000 3:108.000000 4:37.000000 5:0.000000 6:39.200001 7:0.305000 8:65.000000
-1  1:4.000000 2:115.000000 3:72.000000 4:0.000000 5:0.000000 6:28.900000 7:0.376000 8:46.000000
+1  1:3.000000 2:96.000000 3:56.000000 4:34.000000 5:115.000000 6:24.700001 7:0.944000 8:39.000000
+1  1:1.000000 2:139.000000 3:46.000000 4:19.000000 5:83.000000 6:28.700001 7:0.654000 8:22.000000
+1  1:2.000000 2:117.000000 3:90.000000 4:19.000000 5:71.000000 6:25.200001 7:0.313000 8:21.000000
-1  1:4.000000 2:158.000000 3:78.000000 4:0.000000 5:0.000000 6:32.900002 7:0.803000 8:31.000000
-1  1:9.000000 2:164.000000 3:84.000000 4:21.000000 5:0.000000 6:30.799999 7:0.831000 8:32.000000
-1  1:1.000000 2:88.000000 3:30.000000 4:42.000000 5:99.000000 6:55.000000 7:0.496000 8:26.000000
+1  1:0.000000 2:152.000000 3:82.000000 4:39.000000 5:272.000000 6:41.500000 7:0.270000 8:27.000000
+1  1:3.000000 2:99.000000 3:80.000000 4:11.000000 5:64.000000 6:19.299999 7:0.284000 8:30.000000
+1  1:3.000000 2:130.000000 3:64.000000 4:0.000000 5:0.000000 6:23.100000 7:0.314000 8:22.000000
+1  1:0.000000 2:86.000000 3:68.000000 4:32.000000 5:0.000000 6:35.799999 7:0.238000 8:25.000000
+1  1:1.000000 2:139.000000 3:46.000000 4:19.000000 5:83.000000 6:28.700001 7:0.654000 8:22.000000
+1  1:2.000000 2:122.000000 3:60.000000 4:18.000000 5:106.000000 6:29.799999 7:0.717000 8:22.000000
-1  1:10.000000 2:148.000000 3:84.000000 4:48.000000 5:237.000000 6:37.599998 7:1.001000 8:51.000000
-1  1:0.000000 2:167.000000 3:0.000000 4:0.000000 5:0.000000 6:32.299999 7:0.839000 8:30.000000
-1  1:1.000000 2:122.000000 3:64.000000 4:32.000000 5:156.000000 6:35.099998 7:0.692000 8:30.000000
-1  1:4.000000 2:156.000000 3:75.000000 4:0.000000 5:0.000000 6:48.299999 7:0.238000 8:32.000000
-1  1:4.000000 2:183.000000 3:0.000000 4:0.000000 5:0.000000 6:28.400000 7:0.212000 8:36.000000
+1  1:4.000000 2:95.000000 3:60.000000 4:32.000000 5:0.000000 6:35.400002 7:0.284000 8:28.000000
+1  1:9.000000 2:106.000000 3:52.000000 4:0.000000 5:0.000000 6:31.200001 7:0.380000 8:42.000000
+1  1:1.000000 2:100.000000 3:72.000000 4:12.000000 5:70.000000 6:25.299999 7:0.658000 8:28.000000
-1  1:3.000000 2:173.000000 3:84.000000 4:33.000000 5:474.000000 6:35.700001 7:0.258000 8:22.000000
+1  1:1.000000 2:143.000000 3:74.000000 4:22.000000 5:61.000000 6:26.200001 7:0.256000 8:21.000000
+1  1:0.000000 2:98.000000 3:82.000000 4:15.000000 5:84.000000 6:25.200001 7:0.299000 8:22.000000
-1  1:6.000000 2:115.000000 3:60.000000 4:39.000000 5:0.000000 6:33.700001 7:0.245000 8:40.000000
-1  1:9.000000 2:171.000000 3:110.000000 4:24.000000 5:240.000000 6:45.400002 7:0.721000 8:54.000000
-1  1:0.000000 2:145.000000 3:0.000000 4:0.000000 5:0.000000 6:44.200001 7:0.630000 8:31.000000
+1  1:2.000000 2:89.000000 3:90.000000 4:30.000000 5:0.000000 6:33.500000 7:0.292000 8:42.000000
+1  1:1.000000 2:144.000000 3:82.000000 4:40.000000 5:0.000000 6:41.299999 7:0.607000 8:28.000000
-1  1:13.000000 2:152.000000 3:90.000000 4:33.000000 5:29.000000 6:26.799999 7:0.731000 8:43.000000
+1  1:3.000000 2:123.000000 3:100.000000 4:35.000000 5:240.000000 6:57.299999 7:0.880000 8:22.000000
+1  1:3.000000 2:96.000000 3:78.000000 4:39.000000 5:0.000000 6:37.299999 7:0.238000 8:40.000000
+1  1:7.000000 2:105.000000 3:0.000000 4:0.000000 5:0.000000 6:0.000000 7:0.305000 8:24.000000
+1  1:1.000000 2:89.000000 3:66.000000 4:23.000000 5:94.000000 6:28.100000 7:0.167000 8:21.000000
-1  1:0.000000 2:95.000000 3:85.000000 4:25.000000 5:36.000000 6:37.400002 7:0.247000 8:24.000000
+1  1:0.000000 2:134.000000 3:58.000000 4:20.000000 5:291.000000 6:26.400000 7:0.352000 8:21.000000
+1  1:5.000000 2:106.000000 3:82.000000 4:30.000000 5:0.000000 6:39.500000 7:0.286000 8:38.000000
+1  1:0.000000 2:106.000000 3:70.000000 4:37.000000 5:148.000000 6:39.400002 7:0.605000 8:22.000000
+1  1:1.000000 2:71.000000 3:48.000000 4:18.000000 5:76.000000 6:20.400000 7:0.323000 8:22.000000
-1  1:0.000000 2:107.000000 3:62.000000 4:30.000000 5:74.000000 6:36.599998 7:0.757000 8:25.000000
-1  1:10.000000 2:115.000000 3:0.000000 4:0.000000 5:0.000000 6:0.000000 7:0.261000 8:30.000000
+1  1:1.000000 2:120.000000 3:80.000000 4:48.000000 5:200.000000 6:38.900002 7:1.162000 8:41.000000
+1  1:3.000000 2:111.000000 3:58.000000 4:31.000000 5:44.000000 6:29.500000 7:0.430000 8:22.000000
+1  1:6.000000 2:92.000000 3:92.000000 4:0.000000 5:0.000000 6:19.900000 7:0.188000 8:28.000000
-1  1:1.000000 2:113.000000 3:64.000000 4:35.000000 5:0.000000 6:33.599998 7:0.543000 8:21.000000
-1  1:3.000000 2:141.000000 3:0.000000 4:0.000000 5:0.000000 6:30.000000 7:0.761000 8:27.000000
+1  1:2.000000 2:92.000000 3:52.000000 4:0.000000 5:0.000000 6:30.100000 7:0.141000 8:22.000000
-1  1:4.000000 2:146.000000 3:78.000000 4:0.000000 5:0.000000 6:38.500000 7:0.520000 8:67.000000
+1  1:9.000000 2:91.000000 3:68.000000 4:0.000000 5:0.000000 6:24.200001 7:0.200000 8:58.000000
+1  1:3.000000 2:81.000000 3:86.000000 4:16.000000 5:66.000000 6:27.500000 7:0.306000 8:22.000000
+1  1:8.000000 2:65.000000 3:72.000000 4:23.000000 5:0.000000 6:32.000000 7:0.600000 8:42.000000
-1  1:8.000000 2:155.000000 3:62.000000 4:26.000000 5:495.000000 6:34.000000 7:0.543000 8:46.000000
-1  1:10.000000 2:115.000000 3:0.000000 4:0.000000 5:0.000000 6:0.000000 7:0.261000 8:30.000000
-1  1:9.000000 2:130.000000 3:70.000000 4:0.000000 5:0.000000 6:34.200001 7:0.652000 8:45.000000
+1  1:2.000000 2:92.000000 3:52.000000 4:0.000000 5:0.000000 6:30.100000 7:0.141000 8:22.000000
+1  1:0.000000 2:165.000000 3:76.000000 4:43.000000 5:255.000000 6:47.900002 7:0.259000 8:26.000000
+1  1:1.000000 2:95.000000 3:74.000000 4:21.000000 5:73.000000 6:25.900000 7:0.673000 8:36.000000
+1  1:10.000000 2:75.000000 3:82.000000 4:0.000000 5:0.000000 6:33.299999 7:0.263000 8:38.000000
+1  1:6.000000 2:108.000000 3:44.000000 4:20.000000 5:130.000000 6:24.000000 7:0.813000 8:35.000000
-1  1:0.000000 2:146.000000 3:70.000000 4:0.000000 5:0.000000 6:37.900002 7:0.334000 8:28.000000
-1  1:1.000000 2:144.000000 3:82.000000 4:46.000000 5:180.000000 6:46.099998 7:0.335000 8:46.000000
+1  1:3.000000 2:130.000000 3:64.000000 4:0.000000 5:0.000000 6:23.100000 7:0.314000 8:22.000000
-1  1:4.000000 2:125.000000 3:70.000000 4:18.000000 5:122.000000 6:28.900000 7:1.144000 8:45.000000
-1  1:9.000000 2:145.000000 3:88.000000 4:34.000000 5:165.000000 6:30.299999 7:0.771000 8:53.000000
-1  1:1.000000 2:181.000000 3:64.000000 4:30.000000 5:180.000000 6:34.099998 7:0.328000 8:38.000000
-1  1:4.000000 2:171.000000 3:72.000000 4:0.000000 5:0.000000 6:43.599998 7:0.479000 8:26.000000
+1  1:1.000000 2:193.000000 3:50.000000 4:16.000000 5:375.000000 6:25.900000 7:0.655000 8:24.000000
-1  1:5.000000 2:158.000000 3:84.000000 4:41.000000 5:210.000000 6:39.400002 7:0.395000 8:29.000000
-1  1:0.000000 2:129.000000 3:110.000000 4:46.000000 5:130.000000 6:67.099998 7:0.319000 8:26.000000
-1  1:7.000000 2:129.000000 3:68.000000 4:49.000000 5:125.000000 6:38.500000 7:0.439000 8:43.000000
+1  1:0.000000 2:86.000000 3:68.000000 4:32.000000 5:0.000000 6:35.799999 7:0.238000 8:25.000000
+1  1:2.000000 2:84.000000 3:50.000000 4:23.000000 5:76.000000 6:30.400000 7:0.968000 8:21.000000
+1  1:3.000000 2:96.000000 3:78.000000 4:39.000000 5:0.000000 6:37.299999 7:0.238000 8:40.000000
-1  1:4.000000 2:171.000000 3:72.000000 4:0.000000 5:0.000000 6:43.599998 7:0.479000 8:26.000000
+1  1:6.000000 2:102.000000 3:90.000000 4:39.000000 5:0.000000 6:35.700001 7:0.674000 8:28.000000
+1  1:1.000000 2:87.000000 3:68.000000 4:34.000000 5:77.000000 6:37.599998 7:0.401000 8:24.000000
+1  1:0.000000 2:99.000000 3:0.000000 4:0.000000 5:0.000000 6:25.000000 7:0.253000 8:22.000000
-1  1:11.000000 2:143.000000 3:94.000000 4:33.000000 5:146.000000 6:36.599998 7:0.254000 8:51.000000
-1  1:4.000000 2:171.000000 3:72.000000 4:0.000000 5:0.000000 6:43.599998 7:0.479000 8:26.000000
+1  1:3.000000 2:74.000000 3:68.000000 4:28.000000 5:45.000000 6:29.700001 7:0.293000 8:23.000000
+1  1:1.000000 2:143.000000 3:84.000000 4:23.000000 5:310.000000 6:42.400002 7:1.076000 8:22.000000
+1  1:1.000000 2:77.000000 3:56.000000 4:30.000000 5:56.000000 6:33.299999 7:1.251000 8:24.000000
+1  1:4.000000 2:127.000000 3:88.000000 4:11.000000 5:155.000000 6:34.500000 7:0.598000 8:28.000000
+1  1:2.000000 2:122.000000 3:76.000000 4:27.000000 5:200.000000 6:35.900002 7:0.483000 8:26.000000
-1  1:3.000000 2:173.000000 3:82.000000 4:48.000000 5:465.000000 6:38.400002 7:2.137000 8:25.000000
+1  1:4.000000 2:137.000000 3:84.000000 4:0.000000 5:0.000000 6:31.200001 7:0.252000 8:30.000000
-1  1:6.000000 2:125.000000 3:78.000000 4:31.000000 5:0.000000 6:27.600000 7:0.565000 8:49.000000
+1  1:0.000000 2:137.000000 3:70.000000 4:38.000000 5:0.000000 6:33.200001 7:0.170000 8:22.000000
+1  1:1.000000 2:80.000000 3:55.000000 4:0.000000 5:0.000000 6:19.100000 7:0.258000 8:21.000000
+1  1:0.000000 2:102.000000 3:64.000000 4:46.000000 5:78.000000 6:40.599998 7:0.496000 8:21.000000
+1  1:1.000000 2:138.000000 3:82.000000 4:0.000000 5:0.000000 6:40.099998 7:0.236000 8:28.000000
+1  1:5.000000 2:117.000000 3:92.000000 4:0.000000 5:0.000000 6:34.099998 7:0.337000 8:38.000000
-1  1:3.000000 2:121.000000 3:52.000000 4:0.000000 5:0.000000 6:36.000000 7:0.127000 8:25.000000
+1  1:1.000000 2:97.000000 3:70.000000 4:40.000000 5:0.000000 6:38.099998 7:0.218000 8:30.000000
+1  1:2.000000 2:107.000000 3:74.000000 4:30.000000 5:100.000000 6:33.599998 7:0.404000 8:23.000000
-1  1:6.000000 2:134.000000 3:80.000000 4:37.000000 5:370.000000 6:46.200001 7:0.238000 8:46.000000
-1  1:2.000000 2:134.000000 3:70.000000 4:0.000000 5:0.000000 6:28.900000 7:0.542000 8:23.000000
+1  1:3.000000 2:74.000000 3:68.000000 4:28.000000 5:45.000000 6:29.700001 7:0.293000 8:23.000000
-1  1:4.000000 2:142.000000 3:86.000000 4:0.000000 5:0.000000 6:44.000000 7:0.645000 8:22.000000
+1  1:0.000000 2:101.000000 3:64.000000 4:17.000000 5:0.000000 6:21.000000 7:0.252000 8:21.000000
-1  1:1.000000 2:113.000000 3:64.000000 4:35.000000 5:0.000000 6:33.599998 7:0.543000 8:21.000000
+1  1:5.000000 2:126.000000 3:78.000000 4:27.000000 5:22.000000 6:29.600000 7:0.439000 8:40.000000
+1  1:4.000000 2:95.000000 3:60.000000 4:32.000000 5:0.000000 6:35.400002 7:0.284000 8:28.000000
+1  1:2.000000 2:108.000000 3:62.000000 4:32.000000 5:56.000000 6:25.200001 7:0.128000 8:21.000000
+1  1:2.000000 2:112.000000 3:86.000000 4:42.000000 5:160.000000 6:38.400002 7:0.246000 8:28.000000
-1  1:1.000000 2:95.000000 3:82.000000 4:25.000000 5:180.000000 6:35.000000 7:0.233000 8:43.000000
+1  1:1.000000 2:87.000000 3:60.000000 4:37.000000 5:75.000000 6:37.200001 7:0.509000 8:22.000000
+1  1:0.000000 2:102.000000 3:64.000000 4:46.000000 5:78.000000 6:40.599998 7:0.496000 8:21.000000
+1  1:4.000000 2:90.000000 3:88.000000 4:47.000000 5:54.000000 6:37.700001 7:0.362000 8:29.000000
+1  1:3.000000 2:99.000000 3:80.000000 4:11.000000 5:64.000000 6:19.299999 7:0.284000 8:30.000000
+1  1:3.000000 2:113.000000 3:44.000000 4:13.000000 5:0.000000 6:22.400000 7:0.140000 8:22.000000
+1  1:0.000000 2:129.000000 3:80.000000 4:0.000000 5:0.000000 6:31.200001 7:0.703000 8:29.000000
+1  1:0.000000 2:129.000000 3:80.000000 4:0.000000 5:0.000000 6:31.200001 7:0.703000 8:29.000000
+1  1:7.000000 2:62.000000 3:78.000000 4:0.000000 5:0.000000 6:32.599998 7:0.391000 8:41.000000
+1  1:2.000000 2:130.000000 3:96.000000 4:0.000000 5:0.000000 6:22.600000 7:0.268000 8:21.000000
+1  1:2.000000 2:142.000000 3:82.000000 4:18.000000 5:64.000000 6:24.700001 7:0.761000 8:21.000000
-1  1:4.000000 2:146.000000 3:92.000000 4:0.000000 5:0.000000 6:31.200001 7:0.539000 8:61.000000
+1  1:12.000000 2:106.000000 3:80.000000 4:0.000000 5:0.000000 6:23.600000 7:0.137000 8:44.000000
-1  1:2.000000 2:197.000000 3:70.000000 4:99.000000 5:0.000000 6:34.700001 7:0.575000 8:62.000000
+1  1:1.000000 2:83.000000 3:68.000000 4:0.000000 5:0.000000 6:18.200001 7:0.624000 8:27.000000
-1  1:7.000000 2:178.000000 3:84.000000 4:0.000000 5:0.000000 6:39.900002 7:0.331000 8:41.000000
+1  1:1.000000 2:117.000000 3:60.000000 4:23.000000 5:106.000000 6:33.799999 7:0.466000 8:27.000000
+1  1:6.000000 2:80.000000 3:80.000000 4:36.000000 5:0.000000 6:39.799999 7:0.177000 8:28.000000
-1  1:5.000000 2:168.000000 3:64.000000 4:0.000000 5:0.000000 6:32.900002 7:0.135000 8:41.000000
+1  1:10.000000 2:101.000000 3:76.000000 4:48.000000 5:180.000000 6:32.900002 7:0.171000 8:63.000000
+1  1:2.000000 2:101.000000 3:58.000000 4:35.000000 5:90.000000 6:21.799999 7:0.155000 8:22.000000
+1  1:5.000000 2:99.000000 3:54.000000 4:28.000000 5:83.000000 6:34.000000 7:0.499000 8:30.000000
-1  1:3.000000 2:162.000000 3:52.000000 4:38.000000 5:0.000000 6:37.200001 7:0.652000 8:24.000000
+1  1:0.000000 2:152.000000 3:82.000000 4:39.000000 5:272.000000 6:41.500000 7:0.270000 8:27.000000
+1  1:4.000000 2:117.000000 3:64.000000 4:27.000000 5:120.000000 6:33.200001 7:0.230000 8:24.000000
-1  1:1.000000 2:147.000000 3:94.000000 4:41.000000 5:0.000000 6:49.299999 7:0.358000 8:27.000000
+1  1:4.000000 2:96.000000 3:56.000000 4:17.000000 5:49.000000 6:20.799999 7:0.340000 8:26.000000
+1  1:2.000000 2:88.000000 3:58.000000 4:26.000000 5:16.000000 6:28.400000 7:0.766000 8:22.000000
+1  1:0.000000 2:99.000000 3:0.000000 4:0.000000 5:0.000000 6:25.000000 7:0.253000 8:22.000000
+1  1:4.000000 2:110.000000 3:76.000000 4:20.000000 5:100.000000 6:28.400000 7:0.118000 8:27.000000
+1  1:7.000000 2:159.000000 3:64.000000 4:0.000000 5:0.000000 6:27.400000 7:0.294000 8:40.000000
-1  1:5.000000 2:97.000000 3:76.000000 4:27.000000 5:0.000000 6:35.599998 7:0.378000 8:52.000000
+1  1:0.000000 2:126.000000 3:86.000000 4:27.000000 5:120.000000 6:27.400000 7:0.515000 8:21.000000
+1  1:2.000000 2:96.000000 3:68.000000 4:13.000000 5:49.000000 6:21.100000 7:0.647000 8:26.000000
+1  1:0.000000 2:101.000000 3:64.000000 4:17.000000 5:0.000000 6:21.000000 7:0.252000 8:21.000000
+1  1:0.000000 2:137.000000 3:70.000000 4:38.000000 5:0.000000 6:33.200001 7:0.170000 8:22.000000
+1  1:1.000000 2:77.000000 3:56.000000 4:30.000000 5:56.000000 6:33.299999 7:1.251000 8:24.000000
+1  1:5.000000 2:95.000000 3:72.000000 4:33.000000 5:0.000000 6:37.700001 7:0.370000 8:27.000000
-1  1:5.000000 2:0.000000 3:80.000000 4:32.000000 5:0.000000 6:41.000000 7:0.346000 8:37.000000
+1  1:1.000000 2:79.000000 3:80.000000 4:25.000000 5:37.000000 6:25.400000 7:0.583000 8:22.000000
+1  1:1.000000 2:73.000000 3:50.000000 4:10.000000 5:0.000000 6:23.000000 7:0.248000 8:21.000000
+1  1:1.000000 2:105.000000 3:58.000000 4:0.000000 5:0.000000 6:24.299999 7:0.187000 8:21.000000
+1  1:0.000000 2:126.000000 3:86.000000 4:27.000000 5:120.000000 6:27.400000 7:0.515000 8:21.000000
+1  1:1.000000 2:117.000000 3:60.000000 4:23.000000 5:106.000000 6:33.799999 7:0.466000 8:27.000000
+1  1:1.000000 2:87.000000 3:60.000000 4:37.000000 5:75.000000 6:37.200001 7:0.509000 8:22.000000
+1  1:0.000000 2:137.000000 3:68.000000 4:14.000000 5:148.000000 6:24.799999 7:0.143000 8:21.000000
-1  1:5.000000 2:139.000000 3:80.000000 4:35.000000 5:160.000000 6:31.600000 7:0.361000 8:25.000000
+1  1:2.000000 2:112.000000 3:75.000000 4:32.000000 5:0.000000 6:35.700001 7:0.148000 8:21.000000
-1  1:10.000000 2:101.000000 3:86.000000 4:37.000000 5:0.000000 6:45.599998 7:1.136000 8:38.000000
-1  1:9.000000 2:156.000000 3:86.000000 4:0.000000 5:0.000000 6:24.799999 7:0.230000 8:53.000000
+1  1:5.000000 2:136.000000 3:82.000000 4:0.000000 5:0.000000 6:0.000000 7:0.640000 8:69.000000
+1  1:4.000000 2:103.000000 3:60.000000 4:33.000000 5:192.000000 6:24.000000 7:0.966000 8:33.000000
+1  1:6.000000 2:108.000000 3:44.000000 4:20.000000 5:130.000000 6:24.000000 7:0.813000 8:35.000000
+1  1:5.000000 2:117.000000 3:92.000000 4:0.000000 5:0.000000 6:34.099998 7:0.337000 8:38.000000
+1  1:4.000000 2:132.000000 3:86.000000 4:31.000000 5:0.000000 6:28.000000 7:0.419000 8:63.000000
+1  1:2.000000 2:84.000000 3:50.000000 4:23.000000 5:76.000000 6:30.400000 7:0.968000 8:21.000000
+1  1:0.000000 2:108.000000 3:68.000000 4:20.000000 5:0.000000 6:27.299999 7:0.787000 8:32.000000
+1  1:3.000000 2:96.000000 3:56.000000 4:34.000000 5:115.000000 6:24.700001 7:0.944000 8:39.000000
+1  1:1.000000 2:101.000000 3:50.000000 4:15.000000 5:36.000000 6:24.200001 7:0.526000 8:26.000000
+1  1:2.000000 2:122.000000 3:70.000000 4:27.000000 5:0.000000 6:36.799999 7:0.340000 8:27.000000
+1  1:3.000000 2:111.000000 3:58.000000 4:31.000000 5:44.000000 6:29.500000 7:0.430000 8:22.000000
+1  1:4.000000 2:132.000000 3:86.000000 4:31.000000 5:0.000000 6:28.000000 7:0.419000 8:63.000000
+1  1:2.000000 2:122.000000 3:52.000000 4:43.000000 5:158.000000 6:36.200001 7:0.816000 8:28.000000
-1  1:8.000000 2:133.000000 3:72.000000 4:0.000000 5:0.000000 6:32.900002 7:0.270000 8:39.000000
+1  1:1.000000 2:77.000000 3:56.000000 4:30.000000 5:56.000000 6:33.299999 7:1.251000 8:24.000000
+1  1:5.000000 2:155.000000 3:84.000000 4:44.000000 5:545.000000 6:38.700001 7:0.619000 8:34.000000
+1  1:5.000000 2:114.000000 3:74.000000 4:0.000000 5:0.000000 6:24.900000 7:0.744000 8:57.000000
+1  1:5.000000 2:104.000000 3:74.000000 4:0.000000 5:0.000000 6:28.799999 7:0.153000 8:48.000000
+1  1:8.000000 2:120.000000 3:78.000000 4:0.000000 5:0.000000 6:25.000000 7:0.409000 8:64.000000
-1  1:6.000000 2:0.000000 3:68.000000 4:41.000000 5:0.000000 6:39.000000 7:0.727000 8:41.000000
+1  1:0.000000 2:102.000000 3:64.000000 4:46.000000 5:78.000000 6:40.599998 7:0.496000 8:21.000000
+1  1:5.000000 2:132.000000 3:80.000000 4:0.000000 5:0.000000 6:26.799999 7:0.186000 8:69.000000
-1  1:3.000000 2:158.000000 3:76.000000 4:36.000000 5:245.000000 6:31.600000 7:0.851000 8:28.000000
+1  1:5.000000 2:117.000000 3:92.000000 4:0.000000 5:0.000000 6:34.099998 7:0.337000 8:38.000000
+1  1:6.000000 2:80.000000 3:80.000000 4:36.000000 5:0.000000 6:39.799999 7:0.177000 8:28.000000
-1  1:1.000000 2:149.000000 3:68.000000 4:29.000000 5:127.000000 6:29.299999 7:0.349000 8:42.000000
-1  1:7.000000 2:150.000000 3:78.000000 4:29.000000 5:126.000000 6:35.200001 7:0.692000 8:54.000000
+1  1:1.000000 2:138.000000 3:82.000000 4:0.000000 5:0.000000 6:40.099998 7:0.236000 8:28.000000
+1  1:1.000000 2:128.000000 3:82.000000 4:17.000000 5:183.000000 6:27.500000 7:0.115000 8:22.000000
+1  1:2.000000 2:120.000000 3:76.000000 4:37.000000 5:105.000000 6:39.700001 7:0.215000 8:29.000000
+1  1:2.000000 2:100.000000 3:64.000000 4:23.000000 5:0.000000 6:29.700001 7:0.368000 8:21.000000
+1  1:13.000000 2:76.000000 3:60.000000 4:0.000000 5:0.000000 6:32.799999 7:0.180000 8:41.000000
+1  1:3.000000 2:120.000000 3:70.000000 4:30.000000 5:135.000000 6:42.900002 7:0.452000 8:30.000000
+1  1:7.000000 2:81.000000 3:78.000000 4:40.000000 5:48.000000 6:46.700001 7:0.261000 8:42.000000
-1  1:4.000000 2:184.000000 3:78.000000 4:39.000000 5:277.000000 6:37.000000 7:0.264000 8:31.000000
-1  1:9.000000 2:130.000000 3:70.000000 4:0.000000 5:0.000000 6:34.200001 7:0.652000 8:45.000000
+1  1:0.000000 2:137.000000 3:84.000000 4:27.000000 5:0.000000 6:27.299999 7:0.231000 8:59.000000
+1  1:2.000000 2:108.000000 3:62.000000 4:32.000000 5:56.000000 6:25.200001 7:0.128000 8:21.000000
-1  1:4.000000 2:184.000000 3:78.000000 4:39.000000 5:277.000000 6:37.000000 7:0.264000 8:31.000000
+1  1:5.000000 2:78.000000 3:48.000000 4:0.000000 5:0.000000 6:33.700001 7:0.654000 8:25.000000
-1  1:8.000000 2:197.000000 3:74.000000 4:0.000000 5:0.000000 6:25.900000 7:1.191000 8:39.000000
-1  1:6.000000 2:119.000000 3:50.000000 4:22.000000 5:176.000000 6:27.100000 7:1.318000 8:33.000000
-1  1:8.000000 2:151.000000 3:78.000000 4:32.000000 5:210.000000 6:42.900002 7:0.516000 8:36.000000
+1  1:8.000000 2:74.000000 3:70.000000 4:40.000000 5:49.000000 6:35.299999 7:0.705000 8:39.000000
+1  1:2.000000 2:108.000000 3:52.000000 4:26.000000 5:63.000000 6:32.500000 7:0.318000 8:22.000000
+1  1:8.000000 2:118.000000 3:72.000000 4:19.000000 5:0.000000 6:23.100000 7:1.476000 8:46.000000
+1  1:5.000000 2:123.000000 3:74.000000 4:40.000000 5:77.000000 6:34.099998 7:0.269000 8:28.000000
-1  1:8.000000 2:167.000000 3:106.000000 4:46.000000 5:231.000000 6:37.599998 7:0.165000 8:43.000000
-1  1:9.000000 2:122.000000 3:56.000000 4:0.000000 5:0.000000 6:33.299999 7:1.114000 8:33.000000
+1  1:1.000000 2:144.000000 3:82.000000 4:40.000000 5:0.000000 6:41.299999 7:0.607000 8:28.000000
+1  1:0.000000 2:125.000000 3:96.000000 4:0.000000 5:0.000000 6:22.500000 7:0.262000 8:21.000000
+1  1:0.000000 2:119.000000 3:66.000000 4:27.000000 5:0.000000 6:38.799999 7:0.259000 8:22.000000
-1  1:0.000000 2:141.000000 3:0.000000 4:0.000000 5:0.000000 6:42.400002 7:0.205000 8:29.000000
+1  1:0.000000 2:105.000000 3:68.000000 4:22.000000 5:0.000000 6:20.000000 7:0.236000 8:22.000000
+1  1:2.000000 2:84.000000 3:50.000000 4:23.000000 5:76.000000 6:30.400000 7:0.968000 8:21.000000
-1  1:3.000000 2:132.000000 3:80.000000 4:0.000000 5:0.000000 6:34.400002 7:0.402000 8:44.000000
+1  1:0.000000 2:106.000000 3:70.000000 4:37.000000 5:148.000000 6:39.400002 7:0.605000 8:22.000000
+1  1:3.000000 2:111.000000 3:58.000000 4:31.000000 5:44.000000 6:29.500000 7:0.430000 8:22.000000
+1  1:2.000000 2:105.000000 3:58.000000 4:40.000000 5:94.000000 6:34.900002 7:0.225000 8:25.000000
-1  1:7.000000 2:97.000000 3:76.000000 4:32.000000 5:91.000000 6:40.900002 7:0.871000 8:32.000000
+1  1:3.000000 2:111.000000 3:62.000000 4:0.000000 5:0.000000 6:22.600000 7:0.142000 8:21.000000
+1  1:3.000000 2:96.000000 3:56.000000 4:34.000000 5:115.000000 6:24.700001 7:0.944000 8:39.000000
+1  1:10.000000 2:133.000000 3:68.000000 4:0.000000 5:0.000000 6:27.000000 7:0.245000 8:36.000000
+1  1:3.000000 2:122.000000 3:78.000000 4:0.000000 5:0.000000 6:23.000000 7:0.254000 8:40.000000
-1  1:1.000000 2:128.000000 3:48.000000 4:45.000000 5:194.000000 6:40.500000 7:0.613000 8:24.000000
+1  1:7.000000 2:119.000000 3:0.000000 4:0.000000 5:0.000000 6:25.200001 7:0.209000 8:37.000000
+1  1:5.000000 2:103.000000 3:108.000000 4:37.000000 5:0.000000 6:39.200001 7:0.305000 8:65.000000
-1  1:3.000000 2:80.000000 3:82.000000 4:31.000000 5:70.000000 6:34.200001 7:1.292000 8:27.000000
+1  1:2.000000 2:106.000000 3:56.000000 4:27.000000 5:165.000000 6:29.000000 7:0.426000 8:22.000000
-1  1:2.000000 2:124.000000 3:68.000000 4:28.000000 5:205.000000 6:32.900002 7:0.875000 8:30.000000
-1  1:4.000000 2:156.000000 3:75.000000 4:0.000000 5:0.000000 6:48.299999 7:0.238000 8:32.000000
+1  1:1.000000 2:138.000000 3:82.000000 4:0.000000 5:0.000000 6:40.099998 7:0.236000 8:28.000000
+1  1:0.000000 2:106.000000 3:70.000000 4:37.000000 5:148.000000 6:39.400002 7:0.605000 8:22.000000
+1  1:2.000000 2:99.000000 3:52.000000 4:15.000000 5:94.000000 6:24.600000 7:0.637000 8:21.000000
+1  1:0.000000 2:105.000000 3:68.000000 4:22.000000 5:0.000000 6:20.000000 7:0.236000 8:22.000000
+1  1:2.000000 2:130.000000 3:96.000000 4:0.000000 5:0.000000 6:22.600000 7:0.268000 8:21.000000
+1  1:1.000000 2:119.000000 3:54.000000 4:13.000000 5:50.000000 6:22.299999 7:0.205000 8:24.000000
+1  1:0.000000 2:127.000000 3:80.000000 4:37.000000 5:210.000000 6:36.299999 7:0.804000 8:23.000000
-1  1:2.000000 2:134.000000 3:70.000000 4:0.000000 5:0.000000 6:28.900000 7:0.542000 8:23.000000
-1  1:5.000000 2:116.000000 3:74.000000 4:29.000000 5:0.000000 6:32.299999 7:0.660000 8:35.000000
-1  1:1.000000 2:196.000000 3:76.000000 4:36.000000 5:249.000000 6:36.500000 7:0.875000 8:29.000000
+1  1:0.000000 2:139.000000 3:62.000000 4:17.000000 5:210.000000 6:22.100000 7:0.207000 8:21.000000
+1  1:2.000000 2:106.000000 3:64.000000 4:35.000000 5:119.000000 6:30.500000 7:1.400000 8:34.000000
+1  1:1.000000 2:111.000000 3:86.000000 4:19.000000 5:0.000000 6:30.100000 7:0.143000 8:23.000000
-1  1:4.000000 2:125.000000 3:70.000000 4:18.000000 5:122.000000 6:28.900000 7:1.144000 8:45.000000
-1  1:0.000000 2:141.000000 3:0.000000 4:0.000000 5:0.000000 6:42.400002 7:0.205000 8:29.000000
+1  1:3.000000 2:99.000000 3:62.000000 4:19.000000 5:74.000000 6:21.799999 7:0.279000 8:26.000000
-1  1:0.000000 2:109.000000 3:88.000000 4:30.000000 5:0.000000 6:32.500000 7:0.855000 8:38.000000
-1  1:5.000000 2:124.000000 3:74.000000 4:0.000000 5:0.000000 6:34.000000 7:0.220000 8:38.000000
-1  1:11.000000 2:135.000000 3:0.000000 4:0.000000 5:0.000000 6:52.299999 7:0.578000 8:40.000000
-1  1:5.000000 2:136.000000 3:84.000000 4:41.000000 5:88.000000 6:35.000000 7:0.286000 8:35.000000
-1  1:9.000000 2:164.000000 3:84.000000 4:21.000000 5:0.000000 6:30.799999 7:0.831000 8:32.000000
+1  1:4.000000 2:110.000000 3:66.000000 4:0.000000 5:0.000000 6:31.900000 7:0.471000 8:29.000000
-1  1:3.000000 2:182.000000 3:74.000000 4:0.000000 5:0.000000 6:30.500000 7:0.345000 8:29.000000
+1  1:0.000000 2:126.000000 3:84.000000 4:29.000000 5:215.000000 6:30.700001 7:0.520000 8:24.000000
+1  1:0.000000 2:161.000000 3:50.000000 4:0.000000 5:0.000000 6:21.900000 7:0.254000 8:65.000000
+1  1:0.000000 2:78.000000 3:88.000000 4:29.000000 5:40.000000 6:36.900002 7:0.434000 8:21.000000
+1  1:6.000000 2:85.000000 3:78.000000 4:0.000000 5:0.000000 6:31.200001 7:0.382000 8:42.000000
+1  1:3.000000 2:113.000000 3:44.000000 4:13.000000 5:0.000000 6:22.400000 7:0.140000 8:22.000000
+1  1:2.000000 2:130.000000 3:96.000000 4:0.000000 5:0.000000 6:22.600000 7:0.268000 8:21.000000
+1  1:7.000000 2:136.000000 3:90.000000 4:0.000000 5:0.000000 6:29.900000 7:0.210000 8:50.000000
+1  1:2.000000 2:88.000000 3:58.000000 4:26.000000 5:16.000000 6:28.400000 7:0.766000 8:22.000000
-1  1:6.000000 2:102.000000 3:82.000000 4:0.000000 5:0.000000 6:30.799999 7:0.180000 8:36.000000
-1  1:3.000000 2:129.000000 3:92.000000 4:49.000000 5:155.000000 6:36.400002 7:0.968000 8:32.000000
+1  1:1.000000 2:82.000000 3:64.000000 4:13.000000 5:95.000000 6:21.200001 7:0.415000 8:23.000000
+1  1:3.000000 2:123.000000 3:100.000000 4:35.000000 5:240.000000 6:57.299999 7:0.880000 8:22.000000
+1  1:4.000000 2:99.000000 3:76.000000 4:15.000000 5:51.000000 6:23.200001 7:0.223000 8:21.000000
+1  1:7.000000 2:150.000000 3:66.000000 4:42.000000 5:342.000000 6:34.700001 7:0.718000 8:42.000000
+1  1:1.000000 2:85.000000 3:66.000000 4:29.000000 5:0.000000 6:26.600000 7:0.351000 8:31.000000
+1  1:4.000000 2:99.000000 3:76.000000 4:15.000000 5:51.000000 6:23.200001 7:0.223000 8:21.000000
+1  1:2.000000 2:95.000000 3:54.000000 4:14.000000 5:88.000000 6:26.100000 7:0.748000 8:22.000000
-1  1:3.000000 2:129.000000 3:92.000000 4:49.000000 5:155.000000 6:36.400002 7:0.968000 8:32.000000
+1  1:6.000000 2:98.000000 3:58.000000 4:33.000000 5:190.000000 6:34.000000 7:0.430000 8:43.000000
-1  1:1.000000 2:180.000000 3:0.000000 4:0.000000 5:0.000000 6:43.299999 7:0.282000 8:41.000000
-1  1:1.000000 2:122.000000 3:64.000000 4:32.000000 5:156.000000 6:35.099998 7:0.692000 8:30.000000
-1  1:3.000000 2:176.000000 3:86.000000 4:27.000000 5:156.000000 6:33.299999 7:1.154000 8:52.000000
+1  1:12.000000 2:106.000000 3:80.000000 4:0.000000 5:0.000000 6:23.600000 7:0.137000 8:44.000000
+1  1:1.000000 2:97.000000 3:70.000000 4:15.000000 5:0.000000 6:18.200001 7:0.147000 8:21.000000
+1  1:2.000000 2:106.000000 3:64.000000 4:35.000000 5:119.000000 6:30.500000 7:1.400000 8:34.000000
-1  1:17.000000 2:163.000000 3:72.000000 4:41.000000 5:114.000000 6:40.900002 7:0.817000 8:47.000000
+1  1:5.000000 2:78.000000 3:48.000000 4:0.000000 5:0.000000 6:33.700001 7:0.654000 8:25.000000
+1  1:3.000000 2:124.000000 3:80.000000 4:33.000000 5:130.000000 6:33.200001 7:0.305000 8:26.000000
-1  1:1.000000 2:149.000000 3:68.000000 4:29.000000 5:127.000000 6:29.299999 7:0.349000 8:42.000000
-1  1:2.000000 2:105.000000 3:80.000000 4:45.000000 5:191.000000 6:33.700001 7:0.711000 8:29.000000
+1  1:3.000000 2:61.000000 3:82.000000 4:28.000000 5:0.000000 6:34.400002 7:0.243000 8:46.000000
+1  1:0.000000 2:127.000000 3:80.000000 4:37.000000 5:210.000000 6:36.299999 7:0.804000 8:23.000000
+1  1:1.000000 2:83.000000 3:68.000000 4:0.000000 5:0.000000 6:18.200001 7:0.624000 8:27.000000
-1  1:9.000000 2:171.000000 3:110.000000 4:24.000000 5:240.000000 6:45.400002 7:0.721000 8:54.000000
+1  1:6.000000 2:151.000000 3:62.000000 4:31.000000 5:120.000000 6:35.500000 7:0.692000 8:28.000000
+1  1:2.000000 2:123.000000 3:48.000000 4:32.000000 5:165.000000 6:42.099998 7:0.520000 8:26.000000
-1  1:17.000000 2:163.000000 3:72.000000 4:41.000000 5:114.000000 6:40.900002 7:0.817000 8:47.000000
+1  1:1.000000 2:99.000000 3:72.000000 4:30.000000 5:18.000000 6:38.599998 7:0.412000 8:21.000000
+1  1:2.000000 2:122.000000 3:76.000000 4:27.000000 5:200.000000 6:35.900002 7:0.483000 8:26.000000
+1  1:5.000000 2:114.000000 3:74.000000 4:0.000000 5:0.000000 6:24.900000 7:0.744000 8:57.000000
+1  1:1.000000 2:86.000000 3:66.000000 4:52.000000 5:65.000000 6:41.299999 7:0.917000 8:29.000000
+1  1:0.000000 2:107.000000 3:76.000000 4:0.000000 5:0.000000 6:45.299999 7:0.686000 8:24.000000
+1  1:3.000000 2:180.000000 3:64.000000 4:25.000000 5:70.000000 6:34.000000 7:0.271000 8:26.000000
+1  1:10.000000 2:75.000000 3:82.000000 4:0.000000 5:0.000000 6:33.299999 7:0.263000 8:38.000000
+1  1:6.000000 2:107.000000 3:88.000000 4:0.000000 5:0.000000 6:36.799999 7:0.727000 8:31.000000
+1  1:3.000000 2:87.000000 3:60.000000 4:18.000000 5:0.000000 6:21.799999 7:0.444000 8:21.000000
-1  1:5.000000 2:158.000000 3:84.000000 4:41.000000 5:210.000000 6:39.400002 7:0.395000 8:29.000000
+1  1:3.000000 2:116.000000 3:0.000000 4:0.000000 5:0.000000 6:23.500000 7:0.187000 8:23.000000
+1  1:3.000000 2:96.000000 3:56.000000 4:34.000000 5:115.000000 6:24.700001 7:0.944000 8:39.000000
+1  1:1.000000 2:92.000000 3:62.000000 4:25.000000 5:41.000000 6:19.500000 7:0.482000 8:25.000000
+1  1:11.000000 2:127.000000 3:106.000000 4:0.000000 5:0.000000 6:39.000000 7:0.190000 8:51.000000
+1  1:0.000000 2:101.000000 3:64.000000 4:17.000000 5:0.000000 6:21.000000 7:0.252000 8:21.000000
+1  1:3.000000 2:150.000000 3:76.000000 4:0.000000 5:0.000000 6:21.000000 7:0.207000 8:37.000000
+1  1:1.000000 2:103.000000 3:80.000000 4:11.000000 5:82.000000 6:19.400000 7:0.491000 8:22.000000
-1  1:0.000000 2:145.000000 3:0.000000 4:0.000000 5:0.000000 6:44.200001 7:0.630000 8:31.000000
+1  1:2.000000 2:92.000000 3:76.000000 4:20.000000 5:0.000000 6:24.200001 7:1.698000 8:28.000000
+1  1:1.000000 2:87.000000 3:60.000000 4:37.000000 5:75.000000 6:37.200001 7:0.509000 8:22.000000
-1  1:2.000000 2:102.000000 3:86.000000 4:36.000000 5:120.000000 6:45.500000 7:0.127000 8:23.000000
+1  1:2.000000 2:121.000000 3:70.000000 4:32.000000 5:95.000000 6:39.099998 7:0.886000 8:23.000000
-1  1:8.000000 2:197.000000 3:74.000000 4:0.000000 5:0.000000 6:25.900000 7:1.191000 8:39.000000
+1  1:3.000000 2:126.000000 3:88.000000 4:41.000000 5:235.000000 6:39.299999 7:0.704000 8:27.000000
+1  1:3.000000 2:126.000000 3:88.000000 4:41.000000 5:235.000000 6:39.299999 7:0.704000 8:27.000000
+1  1:1.000000 2:105.000000 3:58.000000 4:0.000000 5:0.000000 6:24.299999 7:0.187000 8:21.000000
+1  1:5.000000 2:104.000000 3:74.000000 4:0.000000 5:0.000000 6:28.799999 7:0.153000 8:48.000000
+1  1:1.000000 2:114.000000 3:66.000000 4:36.000000 5:200.000000 6:38.099998 7:0.289000 8:21.000000
-1  1:5.000000 2:0.000000 3:80.000000 4:32.000000 5:0.000000 6:41.000000 7:0.346000 8:37.000000
-1  1:7.000000 2:152.000000 3:88.000000 4:44.000000 5:0.000000 6:50.000000 7:0.337000 8:36.000000
