log2c=5 log2g=-7 rate=80.695
log2c=-1 log2g=-7 rate=64.2857
log2c=5 log2g=-1 rate=85.7143
log2c=-1 log2g=-1 rate=79.7297
log2c=11 log2g=-7 rate=80.3089
log2c=11 log2g=-1 rate=87.6448
log2c=5 log2g=-13 rate=64.2857
log2c=-1 log2g=-13 rate=64.2857
log2c=11 log2g=-13 rate=80.888
log2c=-3 log2g=-7 rate=64.2857
log2c=-3 log2g=-1 rate=77.4131
log2c=-3 log2g=-13 rate=64.2857
log2c=5 log2g=1 rate=88.0309
log2c=-1 log2g=1 rate=83.7838
log2c=11 log2g=1 rate=88.2239
log2c=-3 log2g=1 rate=75.6757
log2c=9 log2g=-7 rate=81.0811
log2c=9 log2g=-1 rate=88.8031
log2c=9 log2g=-13 rate=80.3089
log2c=9 log2g=1 rate=88.2239
log2c=5 log2g=-11 rate=68.7259
log2c=-1 log2g=-11 rate=64.2857
log2c=11 log2g=-11 rate=81.2741
log2c=-3 log2g=-11 rate=64.2857
log2c=9 log2g=-11 rate=80.888
log2c=3 log2g=-7 rate=80.5019
log2c=3 log2g=-1 rate=84.3629
log2c=3 log2g=-13 rate=64.2857
log2c=3 log2g=1 rate=88.0309
log2c=3 log2g=-11 rate=64.2857
log2c=5 log2g=-5 rate=81.0811
log2c=-1 log2g=-5 rate=68.7259
log2c=11 log2g=-5 rate=81.2741
log2c=-3 log2g=-5 rate=64.2857
log2c=9 log2g=-5 rate=80.695
log2c=3 log2g=-5 rate=80.3089
log2c=15 log2g=-7 rate=81.4672
log2c=15 log2g=-1 rate=87.6448
log2c=15 log2g=-13 rate=80.888
log2c=15 log2g=1 rate=88.2239
log2c=15 log2g=-11 rate=81.4672
log2c=15 log2g=-5 rate=83.7838
log2c=5 log2g=-15 rate=64.2857
log2c=-1 log2g=-15 rate=64.2857
log2c=11 log2g=-15 rate=80.3089
log2c=-3 log2g=-15 rate=64.2857
log2c=9 log2g=-15 rate=68.7259
log2c=3 log2g=-15 rate=64.2857
log2c=15 log2g=-15 rate=81.2741
log2c=-5 log2g=-7 rate=64.2857
log2c=-5 log2g=-1 rate=64.2857
log2c=-5 log2g=-13 rate=64.2857
log2c=-5 log2g=1 rate=64.2857
log2c=-5 log2g=-11 rate=64.2857
log2c=-5 log2g=-5 rate=64.2857
log2c=-5 log2g=-15 rate=64.2857
log2c=5 log2g=3 rate=88.0309
log2c=-1 log2g=3 rate=83.3977
log2c=11 log2g=3 rate=88.0309
log2c=-3 log2g=3 rate=64.2857
log2c=9 log2g=3 rate=88.0309
log2c=3 log2g=3 rate=88.0309
log2c=15 log2g=3 rate=88.0309
log2c=-5 log2g=3 rate=64.2857
log2c=7 log2g=-7 rate=81.0811
log2c=7 log2g=-1 rate=87.0656
log2c=7 log2g=-13 rate=68.7259
log2c=7 log2g=1 rate=88.2239
log2c=7 log2g=-11 rate=80.3089
log2c=7 log2g=-5 rate=80.5019
log2c=7 log2g=-15 rate=64.2857
log2c=7 log2g=3 rate=88.0309
log2c=5 log2g=-9 rate=80.3089
log2c=-1 log2g=-9 rate=64.2857
log2c=11 log2g=-9 rate=81.0811
log2c=-3 log2g=-9 rate=64.2857
log2c=9 log2g=-9 rate=80.888
log2c=3 log2g=-9 rate=68.7259
log2c=15 log2g=-9 rate=80.3089
log2c=-5 log2g=-9 rate=64.2857
log2c=7 log2g=-9 rate=80.888
log2c=1 log2g=-7 rate=69.305
log2c=1 log2g=-1 rate=82.8185
log2c=1 log2g=-13 rate=64.2857
log2c=1 log2g=1 rate=86.2934
log2c=1 log2g=-11 rate=64.2857
log2c=1 log2g=-5 rate=80.3089
log2c=1 log2g=-15 rate=64.2857
log2c=1 log2g=3 rate=87.4517
log2c=1 log2g=-9 rate=64.2857
log2c=5 log2g=-3 rate=81.2741
log2c=-1 log2g=-3 rate=78.9575
log2c=11 log2g=-3 rate=84.9421
log2c=-3 log2g=-3 rate=66.4093
log2c=9 log2g=-3 rate=83.7838
log2c=3 log2g=-3 rate=80.3089
log2c=15 log2g=-3 rate=86.1004
log2c=-5 log2g=-3 rate=64.2857
log2c=7 log2g=-3 rate=84.1699
log2c=1 log2g=-3 rate=80.5019
log2c=13 log2g=-7 rate=80.888
log2c=13 log2g=-1 rate=87.6448
log2c=13 log2g=-13 rate=81.0811
log2c=13 log2g=1 rate=88.2239
log2c=13 log2g=-11 rate=81.2741
log2c=13 log2g=-5 rate=84.1699
log2c=13 log2g=-15 rate=80.888
log2c=13 log2g=3 rate=88.0309
log2c=13 log2g=-9 rate=81.0811
log2c=13 log2g=-3 rate=85.3282
