log2c=5 log2g=-7 rate=79.7297
log2c=-1 log2g=-7 rate=78.9575
log2c=5 log2g=-1 rate=79.7297
log2c=-1 log2g=-1 rate=78.9575
log2c=11 log2g=-7 rate=79.7297
log2c=11 log2g=-1 rate=79.7297
log2c=5 log2g=-13 rate=79.7297
log2c=-1 log2g=-13 rate=78.9575
log2c=11 log2g=-13 rate=79.7297
log2c=-3 log2g=-7 rate=77.9923
log2c=-3 log2g=-1 rate=77.9923
log2c=-3 log2g=-13 rate=77.9923
log2c=5 log2g=1 rate=79.7297
log2c=-1 log2g=1 rate=78.9575
log2c=11 log2g=1 rate=79.7297
log2c=-3 log2g=1 rate=77.9923
log2c=9 log2g=-7 rate=79.7297
log2c=9 log2g=-1 rate=79.7297
log2c=9 log2g=-13 rate=79.7297
log2c=9 log2g=1 rate=79.7297
log2c=5 log2g=-11 rate=79.7297
log2c=-1 log2g=-11 rate=78.9575
log2c=11 log2g=-11 rate=79.7297
log2c=-3 log2g=-11 rate=77.9923
log2c=9 log2g=-11 rate=79.7297
log2c=3 log2g=-7 rate=79.7297
log2c=3 log2g=-1 rate=79.7297
log2c=3 log2g=-13 rate=79.7297
log2c=3 log2g=1 rate=79.7297
log2c=3 log2g=-11 rate=79.7297
log2c=5 log2g=-5 rate=79.7297
log2c=-1 log2g=-5 rate=78.9575
log2c=11 log2g=-5 rate=79.7297
log2c=-3 log2g=-5 rate=77.9923
log2c=9 log2g=-5 rate=79.7297
log2c=3 log2g=-5 rate=79.7297
log2c=15 log2g=-7 rate=79.5367
log2c=15 log2g=-1 rate=79.5367
log2c=15 log2g=-13 rate=79.5367
log2c=15 log2g=1 rate=79.5367
log2c=15 log2g=-11 rate=79.5367
log2c=15 log2g=-5 rate=79.5367
log2c=5 log2g=-15 rate=79.7297
log2c=-1 log2g=-15 rate=78.9575
log2c=11 log2g=-15 rate=79.7297
log2c=-3 log2g=-15 rate=77.9923
log2c=9 log2g=-15 rate=79.7297
log2c=3 log2g=-15 rate=79.7297
log2c=15 log2g=-15 rate=79.5367
log2c=-5 log2g=-7 rate=75.6757
log2c=-5 log2g=-1 rate=75.6757
log2c=-5 log2g=-13 rate=75.6757
log2c=-5 log2g=1 rate=75.6757
log2c=-5 log2g=-11 rate=75.6757
log2c=-5 log2g=-5 rate=75.6757
log2c=-5 log2g=-15 rate=75.6757
log2c=5 log2g=3 rate=79.7297
log2c=-1 log2g=3 rate=78.9575
log2c=11 log2g=3 rate=79.7297
log2c=-3 log2g=3 rate=77.9923
log2c=9 log2g=3 rate=79.7297
log2c=3 log2g=3 rate=79.7297
log2c=15 log2g=3 rate=79.5367
log2c=-5 log2g=3 rate=75.6757
log2c=7 log2g=-7 rate=79.7297
log2c=7 log2g=-1 rate=79.7297
log2c=7 log2g=-13 rate=79.7297
log2c=7 log2g=1 rate=79.7297
log2c=7 log2g=-11 rate=79.7297
log2c=7 log2g=-5 rate=79.7297
log2c=7 log2g=-15 rate=79.7297
log2c=7 log2g=3 rate=79.7297
log2c=5 log2g=-9 rate=79.7297
log2c=-1 log2g=-9 rate=78.9575
log2c=11 log2g=-9 rate=79.7297
log2c=-3 log2g=-9 rate=77.9923
log2c=9 log2g=-9 rate=79.7297
log2c=3 log2g=-9 rate=79.7297
log2c=15 log2g=-9 rate=79.5367
log2c=-5 log2g=-9 rate=75.6757
log2c=7 log2g=-9 rate=79.7297
log2c=1 log2g=-7 rate=80.1158
log2c=1 log2g=-1 rate=80.1158
log2c=1 log2g=-13 rate=80.1158
log2c=1 log2g=1 rate=80.1158
log2c=1 log2g=-11 rate=80.1158
log2c=1 log2g=-5 rate=80.1158
log2c=1 log2g=-15 rate=80.1158
log2c=1 log2g=3 rate=80.1158
log2c=1 log2g=-9 rate=80.1158
log2c=5 log2g=-3 rate=79.7297
log2c=-1 log2g=-3 rate=78.9575
log2c=11 log2g=-3 rate=79.7297
log2c=-3 log2g=-3 rate=77.9923
log2c=9 log2g=-3 rate=79.7297
log2c=3 log2g=-3 rate=79.7297
log2c=15 log2g=-3 rate=79.5367
log2c=-5 log2g=-3 rate=75.6757
log2c=7 log2g=-3 rate=79.7297
log2c=1 log2g=-3 rate=80.1158
log2c=13 log2g=-7 rate=79.7297
log2c=13 log2g=-1 rate=79.7297
log2c=13 log2g=-13 rate=79.7297
log2c=13 log2g=1 rate=79.7297
log2c=13 log2g=-11 rate=79.7297
log2c=13 log2g=-5 rate=79.7297
log2c=13 log2g=-15 rate=79.7297
log2c=13 log2g=3 rate=79.7297
log2c=13 log2g=-9 rate=79.7297
log2c=13 log2g=-3 rate=79.7297
