log2c=5 log2g=-7 rate=64.2857
log2c=-1 log2g=-7 rate=64.2857
log2c=5 log2g=-1 rate=83.9768
log2c=-1 log2g=-1 rate=82.0463
log2c=11 log2g=-7 rate=65.8301
log2c=11 log2g=-1 rate=83.5907
log2c=5 log2g=-13 rate=64.2857
log2c=-1 log2g=-13 rate=64.2857
log2c=11 log2g=-13 rate=64.2857
log2c=-3 log2g=-7 rate=64.2857
log2c=-3 log2g=-1 rate=79.5367
log2c=-3 log2g=-13 rate=64.2857
log2c=5 log2g=1 rate=83.5907
log2c=-1 log2g=1 rate=83.9768
log2c=11 log2g=1 rate=85.7143
log2c=-3 log2g=1 rate=84.556
log2c=9 log2g=-7 rate=64.2857
log2c=9 log2g=-1 rate=83.5907
log2c=9 log2g=-13 rate=64.2857
log2c=9 log2g=1 rate=85.7143
log2c=5 log2g=-11 rate=64.2857
log2c=-1 log2g=-11 rate=64.2857
log2c=11 log2g=-11 rate=64.2857
log2c=-3 log2g=-11 rate=64.2857
log2c=9 log2g=-11 rate=64.2857
log2c=3 log2g=-7 rate=64.2857
log2c=3 log2g=-1 rate=84.556
log2c=3 log2g=-13 rate=64.2857
log2c=3 log2g=1 rate=83.5907
log2c=3 log2g=-11 rate=64.2857
log2c=5 log2g=-5 rate=65.8301
log2c=-1 log2g=-5 rate=64.2857
log2c=11 log2g=-5 rate=82.0463
log2c=-3 log2g=-5 rate=64.2857
log2c=9 log2g=-5 rate=79.5367
log2c=3 log2g=-5 rate=64.2857
log2c=15 log2g=-7 rate=79.5367
log2c=15 log2g=-1 rate=85.7143
log2c=15 log2g=-13 rate=64.2857
log2c=15 log2g=1 rate=85.7143
log2c=15 log2g=-11 rate=64.2857
log2c=15 log2g=-5 rate=84.556
log2c=5 log2g=-15 rate=64.2857
log2c=-1 log2g=-15 rate=64.2857
log2c=11 log2g=-15 rate=64.2857
log2c=-3 log2g=-15 rate=64.2857
log2c=9 log2g=-15 rate=64.2857
log2c=3 log2g=-15 rate=64.2857
log2c=15 log2g=-15 rate=64.2857
log2c=-5 log2g=-7 rate=64.2857
log2c=-5 log2g=-1 rate=71.8147
log2c=-5 log2g=-13 rate=64.2857
log2c=-5 log2g=1 rate=82.6255
log2c=-5 log2g=-11 rate=64.2857
log2c=-5 log2g=-5 rate=64.2857
log2c=-5 log2g=-15 rate=64.2857
log2c=5 log2g=3 rate=85.7143
log2c=-1 log2g=3 rate=83.5907
log2c=11 log2g=3 rate=85.7143
log2c=-3 log2g=3 rate=83.5907
log2c=9 log2g=3 rate=85.7143
log2c=3 log2g=3 rate=85.7143
log2c=15 log2g=3 rate=85.7143
log2c=-5 log2g=3 rate=84.1699
log2c=7 log2g=-7 rate=64.2857
log2c=7 log2g=-1 rate=84.1699
log2c=7 log2g=-13 rate=64.2857
log2c=7 log2g=1 rate=85.3282
log2c=7 log2g=-11 rate=64.2857
log2c=7 log2g=-5 rate=71.8147
log2c=7 log2g=-15 rate=64.2857
log2c=7 log2g=3 rate=85.7143
log2c=5 log2g=-9 rate=64.2857
log2c=-1 log2g=-9 rate=64.2857
log2c=11 log2g=-9 rate=64.2857
log2c=-3 log2g=-9 rate=64.2857
log2c=9 log2g=-9 rate=64.2857
log2c=3 log2g=-9 rate=64.2857
log2c=15 log2g=-9 rate=64.2857
log2c=-5 log2g=-9 rate=64.2857
log2c=7 log2g=-9 rate=64.2857
log2c=1 log2g=-7 rate=64.2857
log2c=1 log2g=-1 rate=82.6255
log2c=1 log2g=-13 rate=64.2857
log2c=1 log2g=1 rate=84.1699
log2c=1 log2g=-11 rate=64.2857
log2c=1 log2g=-5 rate=64.2857
log2c=1 log2g=-15 rate=64.2857
log2c=1 log2g=3 rate=85.3282
log2c=1 log2g=-9 rate=64.2857
log2c=5 log2g=-3 rate=82.0463
log2c=-1 log2g=-3 rate=65.8301
log2c=11 log2g=-3 rate=83.9768
log2c=-3 log2g=-3 rate=64.2857
log2c=9 log2g=-3 rate=84.556
log2c=3 log2g=-3 rate=79.5367
log2c=15 log2g=-3 rate=83.5907
log2c=-5 log2g=-3 rate=64.2857
log2c=7 log2g=-3 rate=82.6255
log2c=1 log2g=-3 rate=71.8147
log2c=13 log2g=-7 rate=71.8147
log2c=13 log2g=-1 rate=85.3282
log2c=13 log2g=-13 rate=64.2857
log2c=13 log2g=1 rate=85.7143
log2c=13 log2g=-11 rate=64.2857
log2c=13 log2g=-5 rate=82.6255
log2c=13 log2g=-15 rate=64.2857
log2c=13 log2g=3 rate=85.7143
log2c=13 log2g=-9 rate=64.2857
log2c=13 log2g=-3 rate=84.1699
