log2c=5 log2g=-7 rate=81.4672
log2c=-1 log2g=-7 rate=80.1158
log2c=5 log2g=-1 rate=81.4672
log2c=-1 log2g=-1 rate=80.1158
log2c=11 log2g=-7 rate=81.4672
log2c=11 log2g=-1 rate=81.4672
log2c=5 log2g=-13 rate=81.4672
log2c=-1 log2g=-13 rate=80.1158
log2c=11 log2g=-13 rate=81.4672
log2c=-3 log2g=-7 rate=78.1853
log2c=-3 log2g=-1 rate=78.1853
log2c=-3 log2g=-13 rate=78.1853
log2c=5 log2g=1 rate=81.4672
log2c=-1 log2g=1 rate=80.1158
log2c=11 log2g=1 rate=81.4672
log2c=-3 log2g=1 rate=78.1853
log2c=9 log2g=-7 rate=81.4672
log2c=9 log2g=-1 rate=81.4672
log2c=9 log2g=-13 rate=81.4672
log2c=9 log2g=1 rate=81.4672
log2c=5 log2g=-11 rate=81.4672
log2c=-1 log2g=-11 rate=80.1158
log2c=11 log2g=-11 rate=81.4672
log2c=-3 log2g=-11 rate=78.1853
log2c=9 log2g=-11 rate=81.4672
log2c=3 log2g=-7 rate=81.4672
log2c=3 log2g=-1 rate=81.4672
log2c=3 log2g=-13 rate=81.4672
log2c=3 log2g=1 rate=81.4672
log2c=3 log2g=-11 rate=81.4672
log2c=5 log2g=-5 rate=81.4672
log2c=-1 log2g=-5 rate=80.1158
log2c=11 log2g=-5 rate=81.4672
log2c=-3 log2g=-5 rate=78.1853
log2c=9 log2g=-5 rate=81.4672
log2c=3 log2g=-5 rate=81.4672
log2c=15 log2g=-7 rate=81.0811
log2c=15 log2g=-1 rate=81.0811
log2c=15 log2g=-13 rate=81.0811
log2c=15 log2g=1 rate=81.0811
log2c=15 log2g=-11 rate=81.0811
log2c=15 log2g=-5 rate=81.0811
log2c=5 log2g=-15 rate=81.4672
log2c=-1 log2g=-15 rate=80.1158
log2c=11 log2g=-15 rate=81.4672
log2c=-3 log2g=-15 rate=78.1853
log2c=9 log2g=-15 rate=81.4672
log2c=3 log2g=-15 rate=81.4672
log2c=15 log2g=-15 rate=81.0811
log2c=-5 log2g=-7 rate=67.3745
log2c=-5 log2g=-1 rate=67.3745
log2c=-5 log2g=-13 rate=67.3745
log2c=-5 log2g=1 rate=67.3745
log2c=-5 log2g=-11 rate=67.3745
log2c=-5 log2g=-5 rate=67.3745
log2c=-5 log2g=-15 rate=67.3745
log2c=5 log2g=3 rate=81.4672
log2c=-1 log2g=3 rate=80.1158
log2c=11 log2g=3 rate=81.4672
log2c=-3 log2g=3 rate=78.1853
log2c=9 log2g=3 rate=81.4672
log2c=3 log2g=3 rate=81.4672
log2c=15 log2g=3 rate=81.0811
log2c=-5 log2g=3 rate=67.3745
log2c=7 log2g=-7 rate=81.4672
log2c=7 log2g=-1 rate=81.4672
log2c=7 log2g=-13 rate=81.4672
log2c=7 log2g=1 rate=81.4672
log2c=7 log2g=-11 rate=81.4672
log2c=7 log2g=-5 rate=81.4672
log2c=7 log2g=-15 rate=81.4672
log2c=7 log2g=3 rate=81.4672
log2c=5 log2g=-9 rate=81.4672
log2c=-1 log2g=-9 rate=80.1158
log2c=11 log2g=-9 rate=81.4672
log2c=-3 log2g=-9 rate=78.1853
log2c=9 log2g=-9 rate=81.4672
log2c=3 log2g=-9 rate=81.4672
log2c=15 log2g=-9 rate=81.0811
log2c=-5 log2g=-9 rate=67.3745
log2c=7 log2g=-9 rate=81.4672
log2c=1 log2g=-7 rate=80.3089
log2c=1 log2g=-1 rate=80.3089
log2c=1 log2g=-13 rate=80.3089
log2c=1 log2g=1 rate=80.3089
log2c=1 log2g=-11 rate=80.3089
log2c=1 log2g=-5 rate=80.3089
log2c=1 log2g=-15 rate=80.3089
log2c=1 log2g=3 rate=80.3089
log2c=1 log2g=-9 rate=80.3089
log2c=5 log2g=-3 rate=81.4672
log2c=-1 log2g=-3 rate=80.1158
log2c=11 log2g=-3 rate=81.4672
log2c=-3 log2g=-3 rate=78.1853
log2c=9 log2g=-3 rate=81.4672
log2c=3 log2g=-3 rate=81.4672
log2c=15 log2g=-3 rate=81.0811
log2c=-5 log2g=-3 rate=67.3745
log2c=7 log2g=-3 rate=81.4672
log2c=1 log2g=-3 rate=80.3089
log2c=13 log2g=-7 rate=81.2741
log2c=13 log2g=-1 rate=81.2741
log2c=13 log2g=-13 rate=81.2741
log2c=13 log2g=1 rate=81.2741
log2c=13 log2g=-11 rate=81.2741
log2c=13 log2g=-5 rate=81.2741
log2c=13 log2g=-15 rate=81.2741
log2c=13 log2g=3 rate=81.2741
log2c=13 log2g=-9 rate=81.2741
log2c=13 log2g=-3 rate=81.2741
