log2c=5 log2g=-7 rate=78.1853
log2c=-1 log2g=-7 rate=64.6718
log2c=5 log2g=-1 rate=61.7761
log2c=-1 log2g=-1 rate=70.4633
log2c=11 log2g=-7 rate=78.9575
log2c=11 log2g=-1 rate=61.7761
log2c=5 log2g=-13 rate=64.6718
log2c=-1 log2g=-13 rate=64.6718
log2c=11 log2g=-13 rate=78.1853
log2c=-3 log2g=-7 rate=64.6718
log2c=-3 log2g=-1 rate=69.8842
log2c=-3 log2g=-13 rate=64.6718
log2c=5 log2g=1 rate=59.2664
log2c=-1 log2g=1 rate=56.7568
log2c=11 log2g=1 rate=59.4595
log2c=-3 log2g=1 rate=65.8301
log2c=9 log2g=-7 rate=78.9575
log2c=9 log2g=-1 rate=61.7761
log2c=9 log2g=-13 rate=77.027
log2c=9 log2g=1 rate=59.4595
log2c=5 log2g=-11 rate=66.4093
log2c=-1 log2g=-11 rate=64.6718
log2c=11 log2g=-11 rate=79.3436
log2c=-3 log2g=-11 rate=64.6718
log2c=9 log2g=-11 rate=78.1853
log2c=3 log2g=-7 rate=77.2201
log2c=3 log2g=-1 rate=62.7413
log2c=3 log2g=-13 rate=64.6718
log2c=3 log2g=1 rate=61.583
log2c=3 log2g=-11 rate=64.6718
log2c=5 log2g=-5 rate=79.3436
log2c=-1 log2g=-5 rate=66.2162
log2c=11 log2g=-5 rate=76.2548
log2c=-3 log2g=-5 rate=64.6718
log2c=9 log2g=-5 rate=79.1506
log2c=3 log2g=-5 rate=77.9923
log2c=15 log2g=-7 rate=79.1506
log2c=15 log2g=-1 rate=61.7761
log2c=15 log2g=-13 rate=78.9575
log2c=15 log2g=1 rate=59.4595
log2c=15 log2g=-11 rate=78.9575
log2c=15 log2g=-5 rate=74.9035
log2c=5 log2g=-15 rate=64.6718
log2c=-1 log2g=-15 rate=64.6718
log2c=11 log2g=-15 rate=77.027
log2c=-3 log2g=-15 rate=64.6718
log2c=9 log2g=-15 rate=66.4093
log2c=3 log2g=-15 rate=64.6718
log2c=15 log2g=-15 rate=79.3436
log2c=-5 log2g=-7 rate=64.6718
log2c=-5 log2g=-1 rate=64.6718
log2c=-5 log2g=-13 rate=64.6718
log2c=-5 log2g=1 rate=65.0579
log2c=-5 log2g=-11 rate=64.6718
log2c=-5 log2g=-5 rate=64.6718
log2c=-5 log2g=-15 rate=64.6718
log2c=5 log2g=3 rate=58.8803
log2c=-1 log2g=3 rate=56.7568
log2c=11 log2g=3 rate=58.6873
log2c=-3 log2g=3 rate=65.0579
log2c=9 log2g=3 rate=58.8803
log2c=3 log2g=3 rate=59.0734
log2c=15 log2g=3 rate=58.6873
log2c=-5 log2g=3 rate=65.444
log2c=7 log2g=-7 rate=79.3436
log2c=7 log2g=-1 rate=61.7761
log2c=7 log2g=-13 rate=66.4093
log2c=7 log2g=1 rate=59.4595
log2c=7 log2g=-11 rate=77.027
log2c=7 log2g=-5 rate=78.9575
log2c=7 log2g=-15 rate=64.6718
log2c=7 log2g=3 rate=58.8803
log2c=5 log2g=-9 rate=77.027
log2c=-1 log2g=-9 rate=64.6718
log2c=11 log2g=-9 rate=78.9575
log2c=-3 log2g=-9 rate=64.6718
log2c=9 log2g=-9 rate=79.3436
log2c=3 log2g=-9 rate=66.4093
log2c=15 log2g=-9 rate=78.9575
log2c=-5 log2g=-9 rate=64.6718
log2c=7 log2g=-9 rate=78.1853
log2c=1 log2g=-7 rate=66.4093
log2c=1 log2g=-1 rate=64.0927
log2c=1 log2g=-13 rate=64.6718
log2c=1 log2g=1 rate=59.6525
log2c=1 log2g=-11 rate=64.6718
log2c=1 log2g=-5 rate=77.2201
log2c=1 log2g=-15 rate=64.6718
log2c=1 log2g=3 rate=59.6525
log2c=1 log2g=-9 rate=64.6718
log2c=5 log2g=-3 rate=75.8687
log2c=-1 log2g=-3 rate=77.6062
log2c=11 log2g=-3 rate=72.973
log2c=-3 log2g=-3 rate=65.6371
log2c=9 log2g=-3 rate=73.166
log2c=3 log2g=-3 rate=79.3436
log2c=15 log2g=-3 rate=73.166
log2c=-5 log2g=-3 rate=64.6718
log2c=7 log2g=-3 rate=73.9382
log2c=1 log2g=-3 rate=78.5714
log2c=13 log2g=-7 rate=78.9575
log2c=13 log2g=-1 rate=61.7761
log2c=13 log2g=-13 rate=79.3436
log2c=13 log2g=1 rate=59.4595
log2c=13 log2g=-11 rate=78.9575
log2c=13 log2g=-5 rate=75.6757
log2c=13 log2g=-15 rate=78.1853
log2c=13 log2g=3 rate=58.6873
log2c=13 log2g=-9 rate=78.9575
log2c=13 log2g=-3 rate=73.3591
