log2c=5 log2g=-7 rate=67.9537
log2c=-1 log2g=-7 rate=67.9537
log2c=5 log2g=-1 rate=82.6255
log2c=-1 log2g=-1 rate=83.3977
log2c=11 log2g=-7 rate=67.9537
log2c=11 log2g=-1 rate=85.5212
log2c=5 log2g=-13 rate=67.9537
log2c=-1 log2g=-13 rate=67.9537
log2c=11 log2g=-13 rate=67.9537
log2c=-3 log2g=-7 rate=67.9537
log2c=-3 log2g=-1 rate=79.9228
log2c=-3 log2g=-13 rate=67.9537
log2c=5 log2g=1 rate=85.5212
log2c=-1 log2g=1 rate=82.6255
log2c=11 log2g=1 rate=84.9421
log2c=-3 log2g=1 rate=83.2046
log2c=9 log2g=-7 rate=67.9537
log2c=9 log2g=-1 rate=84.749
log2c=9 log2g=-13 rate=67.9537
log2c=9 log2g=1 rate=85.1351
log2c=5 log2g=-11 rate=67.9537
log2c=-1 log2g=-11 rate=67.9537
log2c=11 log2g=-11 rate=67.9537
log2c=-3 log2g=-11 rate=67.9537
log2c=9 log2g=-11 rate=67.9537
log2c=3 log2g=-7 rate=67.9537
log2c=3 log2g=-1 rate=83.2046
log2c=3 log2g=-13 rate=67.9537
log2c=3 log2g=1 rate=84.749
log2c=3 log2g=-11 rate=67.9537
log2c=5 log2g=-5 rate=67.9537
log2c=-1 log2g=-5 rate=67.9537
log2c=11 log2g=-5 rate=83.3977
log2c=-3 log2g=-5 rate=67.9537
log2c=9 log2g=-5 rate=79.9228
log2c=3 log2g=-5 rate=67.9537
log2c=15 log2g=-7 rate=79.9228
log2c=15 log2g=-1 rate=85.1351
log2c=15 log2g=-13 rate=67.9537
log2c=15 log2g=1 rate=84.9421
log2c=15 log2g=-11 rate=67.9537
log2c=15 log2g=-5 rate=83.2046
log2c=5 log2g=-15 rate=67.9537
log2c=-1 log2g=-15 rate=67.9537
log2c=11 log2g=-15 rate=67.9537
log2c=-3 log2g=-15 rate=67.9537
log2c=9 log2g=-15 rate=67.9537
log2c=3 log2g=-15 rate=67.9537
log2c=15 log2g=-15 rate=67.9537
log2c=-5 log2g=-7 rate=67.9537
log2c=-5 log2g=-1 rate=73.166
log2c=-5 log2g=-13 rate=67.9537
log2c=-5 log2g=1 rate=82.6255
log2c=-5 log2g=-11 rate=67.9537
log2c=-5 log2g=-5 rate=67.9537
log2c=-5 log2g=-15 rate=67.9537
log2c=5 log2g=3 rate=84.9421
log2c=-1 log2g=3 rate=85.5212
log2c=11 log2g=3 rate=84.9421
log2c=-3 log2g=3 rate=84.749
log2c=9 log2g=3 rate=84.9421
log2c=3 log2g=3 rate=85.1351
log2c=15 log2g=3 rate=84.9421
log2c=-5 log2g=3 rate=84.749
log2c=7 log2g=-7 rate=67.9537
log2c=7 log2g=-1 rate=84.749
log2c=7 log2g=-13 rate=67.9537
log2c=7 log2g=1 rate=85.1351
log2c=7 log2g=-11 rate=67.9537
log2c=7 log2g=-5 rate=73.166
log2c=7 log2g=-15 rate=67.9537
log2c=7 log2g=3 rate=84.9421
log2c=5 log2g=-9 rate=67.9537
log2c=-1 log2g=-9 rate=67.9537
log2c=11 log2g=-9 rate=67.9537
log2c=-3 log2g=-9 rate=67.9537
log2c=9 log2g=-9 rate=67.9537
log2c=3 log2g=-9 rate=67.9537
log2c=15 log2g=-9 rate=67.9537
log2c=-5 log2g=-9 rate=67.9537
log2c=7 log2g=-9 rate=67.9537
log2c=1 log2g=-7 rate=67.9537
log2c=1 log2g=-1 rate=82.6255
log2c=1 log2g=-13 rate=67.9537
log2c=1 log2g=1 rate=84.749
log2c=1 log2g=-11 rate=67.9537
log2c=1 log2g=-5 rate=67.9537
log2c=1 log2g=-15 rate=67.9537
log2c=1 log2g=3 rate=85.1351
log2c=1 log2g=-9 rate=67.9537
log2c=5 log2g=-3 rate=83.3977
log2c=-1 log2g=-3 rate=67.9537
log2c=11 log2g=-3 rate=82.6255
log2c=-3 log2g=-3 rate=67.9537
log2c=9 log2g=-3 rate=83.2046
log2c=3 log2g=-3 rate=79.9228
log2c=15 log2g=-3 rate=84.749
log2c=-5 log2g=-3 rate=67.9537
log2c=7 log2g=-3 rate=82.6255
log2c=1 log2g=-3 rate=73.166
log2c=13 log2g=-7 rate=73.166
log2c=13 log2g=-1 rate=85.1351
log2c=13 log2g=-13 rate=67.9537
log2c=13 log2g=1 rate=84.9421
log2c=13 log2g=-11 rate=67.9537
log2c=13 log2g=-5 rate=82.6255
log2c=13 log2g=-15 rate=67.9537
log2c=13 log2g=3 rate=84.9421
log2c=13 log2g=-9 rate=67.9537
log2c=13 log2g=-3 rate=84.749
